%YAML 1.1
%TAG !u! tag:unity3d.com,2011:
--- !u!29 &1
OcclusionCullingSettings:
  m_ObjectHideFlags: 0
  serializedVersion: 2
  m_OcclusionBakeSettings:
    smallestOccluder: 5
    smallestHole: 0.25
    backfaceThreshold: 100
  m_SceneGUID: 00000000000000000000000000000000
  m_OcclusionCullingData: {fileID: 0}
--- !u!104 &2
RenderSettings:
  m_ObjectHideFlags: 0
  serializedVersion: 9
  m_Fog: 0
  m_FogColor: {r: 0.5, g: 0.5, b: 0.5, a: 1}
  m_FogMode: 3
  m_FogDensity: 0.01
  m_LinearFogStart: 0
  m_LinearFogEnd: 300
  m_AmbientSkyColor: {r: 0.212, g: 0.227, b: 0.259, a: 1}
  m_AmbientEquatorColor: {r: 0.114, g: 0.125, b: 0.133, a: 1}
  m_AmbientGroundColor: {r: 0.047, g: 0.043, b: 0.035, a: 1}
  m_AmbientIntensity: 1
  m_AmbientMode: 0
  m_SubtractiveShadowColor: {r: 0.42, g: 0.478, b: 0.627, a: 1}
  m_SkyboxMaterial: {fileID: 10304, guid: 0000000000000000f000000000000000, type: 0}
  m_HaloStrength: 0.5
  m_FlareStrength: 1
  m_FlareFadeSpeed: 3
  m_HaloTexture: {fileID: 0}
  m_SpotCookie: {fileID: 10001, guid: 0000000000000000e000000000000000, type: 0}
  m_DefaultReflectionMode: 0
  m_DefaultReflectionResolution: 128
  m_ReflectionBounces: 1
  m_ReflectionIntensity: 1
  m_CustomReflection: {fileID: 0}
  m_Sun: {fileID: 170076734}
  m_IndirectSpecularColor: {r: 0.44657993, g: 0.49641424, b: 0.57481825, a: 1}
  m_UseRadianceAmbientProbe: 0
--- !u!157 &3
LightmapSettings:
  m_ObjectHideFlags: 0
  serializedVersion: 11
  m_GIWorkflowMode: 0
  m_GISettings:
    serializedVersion: 2
    m_BounceScale: 1
    m_IndirectOutputScale: 1
    m_AlbedoBoost: 1
    m_EnvironmentLightingMode: 0
    m_EnableBakedLightmaps: 1
    m_EnableRealtimeLightmaps: 0
  m_LightmapEditorSettings:
    serializedVersion: 10
    m_Resolution: 2
    m_BakeResolution: 10
    m_AtlasSize: 512
    m_AO: 0
    m_AOMaxDistance: 1
    m_CompAOExponent: 1
    m_CompAOExponentDirect: 0
    m_Padding: 2
    m_LightmapParameters: {fileID: 0}
    m_LightmapsBakeMode: 1
    m_TextureCompression: 1
    m_FinalGather: 0
    m_FinalGatherFiltering: 1
    m_FinalGatherRayCount: 256
    m_ReflectionCompression: 2
    m_MixedBakeMode: 2
    m_BakeBackend: 1
    m_PVRSampling: 1
    m_PVRDirectSampleCount: 32
    m_PVRSampleCount: 256
    m_PVRBounces: 2
    m_PVRFilterTypeDirect: 0
    m_PVRFilterTypeIndirect: 0
    m_PVRFilterTypeAO: 0
    m_PVRFilteringMode: 1
    m_PVRCulling: 1
    m_PVRFilteringGaussRadiusDirect: 1
    m_PVRFilteringGaussRadiusIndirect: 5
    m_PVRFilteringGaussRadiusAO: 2
    m_PVRFilteringAtrousPositionSigmaDirect: 0.5
    m_PVRFilteringAtrousPositionSigmaIndirect: 2
    m_PVRFilteringAtrousPositionSigmaAO: 1
    m_ShowResolutionOverlay: 1
  m_LightingDataAsset: {fileID: 0}
  m_UseShadowmask: 1
--- !u!196 &4
NavMeshSettings:
  serializedVersion: 2
  m_ObjectHideFlags: 0
  m_BuildSettings:
    serializedVersion: 2
    agentTypeID: 0
    agentRadius: 0.5
    agentHeight: 2
    agentSlope: 45
    agentClimb: 0.4
    ledgeDropHeight: 0
    maxJumpAcrossDistance: 0
    minRegionArea: 2
    manualCellSize: 0
    cellSize: 0.16666667
    manualTileSize: 0
    tileSize: 256
    accuratePlacement: 0
    debug:
      m_Flags: 0
  m_NavMeshData: {fileID: 0}
--- !u!4 &64440985 stripped
Transform:
  m_CorrespondingSourceObject: {fileID: 3576335614288922936, guid: 9457180d68ce1b14eb5a9951f25ae8cb,
    type: 3}
  m_PrefabInstance: {fileID: 1279401208}
  m_PrefabAsset: {fileID: 0}
--- !u!1 &152280942
GameObject:
  m_ObjectHideFlags: 0
  m_CorrespondingSourceObject: {fileID: 0}
  m_PrefabInstance: {fileID: 0}
  m_PrefabAsset: {fileID: 0}
  serializedVersion: 6
  m_Component:
  - component: {fileID: 152280946}
  - component: {fileID: 152280945}
  - component: {fileID: 152280944}
  - component: {fileID: 152280943}
  m_Layer: 0
  m_Name: Suelo
  m_TagString: Untagged
  m_Icon: {fileID: 0}
  m_NavMeshLayer: 0
  m_StaticEditorFlags: 0
  m_IsActive: 1
--- !u!64 &152280943
MeshCollider:
  m_ObjectHideFlags: 0
  m_CorrespondingSourceObject: {fileID: 0}
  m_PrefabInstance: {fileID: 0}
  m_PrefabAsset: {fileID: 0}
  m_GameObject: {fileID: 152280942}
  m_Material: {fileID: 0}
  m_IsTrigger: 0
  m_Enabled: 1
  serializedVersion: 3
  m_Convex: 0
  m_CookingOptions: 14
  m_Mesh: {fileID: 10209, guid: 0000000000000000e000000000000000, type: 0}
--- !u!23 &152280944
MeshRenderer:
  m_ObjectHideFlags: 0
  m_CorrespondingSourceObject: {fileID: 0}
  m_PrefabInstance: {fileID: 0}
  m_PrefabAsset: {fileID: 0}
  m_GameObject: {fileID: 152280942}
  m_Enabled: 1
  m_CastShadows: 1
  m_ReceiveShadows: 1
  m_DynamicOccludee: 1
  m_MotionVectors: 1
  m_LightProbeUsage: 1
  m_ReflectionProbeUsage: 1
  m_RenderingLayerMask: 1
  m_RendererPriority: 0
  m_Materials:
  - {fileID: 2100000, guid: 65d073127c514954a8dbe8af4e2dd29d, type: 2}
  m_StaticBatchInfo:
    firstSubMesh: 0
    subMeshCount: 0
  m_StaticBatchRoot: {fileID: 0}
  m_ProbeAnchor: {fileID: 0}
  m_LightProbeVolumeOverride: {fileID: 0}
  m_ScaleInLightmap: 1
  m_PreserveUVs: 0
  m_IgnoreNormalsForChartDetection: 0
  m_ImportantGI: 0
  m_StitchLightmapSeams: 0
  m_SelectedEditorRenderState: 3
  m_MinimumChartSize: 4
  m_AutoUVMaxDistance: 0.5
  m_AutoUVMaxAngle: 89
  m_LightmapParameters: {fileID: 0}
  m_SortingLayerID: 0
  m_SortingLayer: 0
  m_SortingOrder: 0
--- !u!33 &152280945
MeshFilter:
  m_ObjectHideFlags: 0
  m_CorrespondingSourceObject: {fileID: 0}
  m_PrefabInstance: {fileID: 0}
  m_PrefabAsset: {fileID: 0}
  m_GameObject: {fileID: 152280942}
  m_Mesh: {fileID: 10209, guid: 0000000000000000e000000000000000, type: 0}
--- !u!4 &152280946
Transform:
  m_ObjectHideFlags: 0
  m_CorrespondingSourceObject: {fileID: 0}
  m_PrefabInstance: {fileID: 0}
  m_PrefabAsset: {fileID: 0}
  m_GameObject: {fileID: 152280942}
  m_LocalRotation: {x: 0, y: 0, z: 0, w: 1}
  m_LocalPosition: {x: 0, y: 0, z: 0}
  m_LocalScale: {x: 5, y: 1, z: 5}
  m_Children: []
  m_Father: {fileID: 0}
  m_RootOrder: 2
  m_LocalEulerAnglesHint: {x: 0, y: 0, z: 0}
--- !u!1 &170076733
GameObject:
  m_ObjectHideFlags: 0
  m_CorrespondingSourceObject: {fileID: 0}
  m_PrefabInstance: {fileID: 0}
  m_PrefabAsset: {fileID: 0}
  serializedVersion: 6
  m_Component:
  - component: {fileID: 170076735}
  - component: {fileID: 170076734}
  m_Layer: 0
  m_Name: Directional Light
  m_TagString: Untagged
  m_Icon: {fileID: 0}
  m_NavMeshLayer: 0
  m_StaticEditorFlags: 0
  m_IsActive: 1
--- !u!108 &170076734
Light:
  m_ObjectHideFlags: 0
  m_CorrespondingSourceObject: {fileID: 0}
  m_PrefabInstance: {fileID: 0}
  m_PrefabAsset: {fileID: 0}
  m_GameObject: {fileID: 170076733}
  m_Enabled: 1
  serializedVersion: 8
  m_Type: 1
  m_Color: {r: 1, g: 0.95686275, b: 0.8392157, a: 1}
  m_Intensity: 1
  m_Range: 10
  m_SpotAngle: 30
  m_CookieSize: 10
  m_Shadows:
    m_Type: 2
    m_Resolution: -1
    m_CustomResolution: -1
    m_Strength: 1
    m_Bias: 0.05
    m_NormalBias: 0.4
    m_NearPlane: 0.2
  m_Cookie: {fileID: 0}
  m_DrawHalo: 0
  m_Flare: {fileID: 0}
  m_RenderMode: 0
  m_CullingMask:
    serializedVersion: 2
    m_Bits: 4294967295
  m_Lightmapping: 1
  m_LightShadowCasterMode: 0
  m_AreaSize: {x: 1, y: 1}
  m_BounceIntensity: 1
  m_ColorTemperature: 6570
  m_UseColorTemperature: 0
  m_ShadowRadius: 0
  m_ShadowAngle: 0
--- !u!4 &170076735
Transform:
  m_ObjectHideFlags: 0
  m_CorrespondingSourceObject: {fileID: 0}
  m_PrefabInstance: {fileID: 0}
  m_PrefabAsset: {fileID: 0}
  m_GameObject: {fileID: 170076733}
  m_LocalRotation: {x: 0.36599812, y: 0.45315394, z: -0.2113091, w: 0.78488564}
  m_LocalPosition: {x: 0, y: 3, z: 0}
  m_LocalScale: {x: 0, y: 1, z: 1}
  m_Children: []
  m_Father: {fileID: 0}
  m_RootOrder: 1
  m_LocalEulerAnglesHint: {x: 50, y: 60, z: 0}
--- !u!1001 &209595029
PrefabInstance:
  m_ObjectHideFlags: 0
  serializedVersion: 2
  m_Modification:
    m_TransformParent: {fileID: 988901801}
    m_Modifications:
    - target: {fileID: 3576335614288922943, guid: 9457180d68ce1b14eb5a9951f25ae8cb,
        type: 3}
      propertyPath: m_Name
      value: PickUp (12)
      objectReference: {fileID: 0}
    - target: {fileID: 3576335614288922936, guid: 9457180d68ce1b14eb5a9951f25ae8cb,
        type: 3}
      propertyPath: m_LocalPosition.x
      value: 6.9
      objectReference: {fileID: 0}
    - target: {fileID: 3576335614288922936, guid: 9457180d68ce1b14eb5a9951f25ae8cb,
        type: 3}
      propertyPath: m_LocalPosition.y
      value: 0.5
      objectReference: {fileID: 0}
    - target: {fileID: 3576335614288922936, guid: 9457180d68ce1b14eb5a9951f25ae8cb,
        type: 3}
      propertyPath: m_LocalPosition.z
      value: 11.2
      objectReference: {fileID: 0}
    - target: {fileID: 3576335614288922936, guid: 9457180d68ce1b14eb5a9951f25ae8cb,
        type: 3}
      propertyPath: m_LocalRotation.x
      value: 0.5606031
      objectReference: {fileID: 0}
    - target: {fileID: 3576335614288922936, guid: 9457180d68ce1b14eb5a9951f25ae8cb,
        type: 3}
      propertyPath: m_LocalRotation.y
      value: 0.1713936
      objectReference: {fileID: 0}
    - target: {fileID: 3576335614288922936, guid: 9457180d68ce1b14eb5a9951f25ae8cb,
        type: 3}
      propertyPath: m_LocalRotation.z
      value: 0.17139359
      objectReference: {fileID: 0}
    - target: {fileID: 3576335614288922936, guid: 9457180d68ce1b14eb5a9951f25ae8cb,
        type: 3}
      propertyPath: m_LocalRotation.w
      value: 0.79181606
      objectReference: {fileID: 0}
    - target: {fileID: 3576335614288922936, guid: 9457180d68ce1b14eb5a9951f25ae8cb,
        type: 3}
      propertyPath: m_RootOrder
      value: 12
      objectReference: {fileID: 0}
    - target: {fileID: 3576335614288922936, guid: 9457180d68ce1b14eb5a9951f25ae8cb,
        type: 3}
      propertyPath: m_LocalEulerAnglesHint.x
      value: 56
      objectReference: {fileID: 0}
    - target: {fileID: 3576335614288922936, guid: 9457180d68ce1b14eb5a9951f25ae8cb,
        type: 3}
      propertyPath: m_LocalEulerAnglesHint.y
      value: 56
      objectReference: {fileID: 0}
    - target: {fileID: 3576335614288922936, guid: 9457180d68ce1b14eb5a9951f25ae8cb,
        type: 3}
      propertyPath: m_LocalEulerAnglesHint.z
      value: 56
      objectReference: {fileID: 0}
    - target: {fileID: 3576335614288922936, guid: 9457180d68ce1b14eb5a9951f25ae8cb,
        type: 3}
      propertyPath: m_LocalScale.y
      value: 0.5000001
      objectReference: {fileID: 0}
    - target: {fileID: 3576335614288922936, guid: 9457180d68ce1b14eb5a9951f25ae8cb,
        type: 3}
      propertyPath: m_LocalScale.z
      value: 0.5000001
      objectReference: {fileID: 0}
    m_RemovedComponents: []
  m_SourcePrefab: {fileID: 100100000, guid: 9457180d68ce1b14eb5a9951f25ae8cb, type: 3}
--- !u!1001 &332659764
PrefabInstance:
  m_ObjectHideFlags: 0
  serializedVersion: 2
  m_Modification:
    m_TransformParent: {fileID: 988901801}
    m_Modifications:
    - target: {fileID: 3576335614288922943, guid: 9457180d68ce1b14eb5a9951f25ae8cb,
        type: 3}
      propertyPath: m_Name
      value: PickUp (9)
      objectReference: {fileID: 0}
    - target: {fileID: 3576335614288922936, guid: 9457180d68ce1b14eb5a9951f25ae8cb,
        type: 3}
      propertyPath: m_LocalPosition.x
      value: -0.7
      objectReference: {fileID: 0}
    - target: {fileID: 3576335614288922936, guid: 9457180d68ce1b14eb5a9951f25ae8cb,
        type: 3}
      propertyPath: m_LocalPosition.y
      value: 0.5
      objectReference: {fileID: 0}
    - target: {fileID: 3576335614288922936, guid: 9457180d68ce1b14eb5a9951f25ae8cb,
        type: 3}
      propertyPath: m_LocalPosition.z
      value: 16.2
      objectReference: {fileID: 0}
    - target: {fileID: 3576335614288922936, guid: 9457180d68ce1b14eb5a9951f25ae8cb,
        type: 3}
      propertyPath: m_LocalRotation.x
      value: 0.5606031
      objectReference: {fileID: 0}
    - target: {fileID: 3576335614288922936, guid: 9457180d68ce1b14eb5a9951f25ae8cb,
        type: 3}
      propertyPath: m_LocalRotation.y
      value: 0.1713936
      objectReference: {fileID: 0}
    - target: {fileID: 3576335614288922936, guid: 9457180d68ce1b14eb5a9951f25ae8cb,
        type: 3}
      propertyPath: m_LocalRotation.z
      value: 0.17139359
      objectReference: {fileID: 0}
    - target: {fileID: 3576335614288922936, guid: 9457180d68ce1b14eb5a9951f25ae8cb,
        type: 3}
      propertyPath: m_LocalRotation.w
      value: 0.79181606
      objectReference: {fileID: 0}
    - target: {fileID: 3576335614288922936, guid: 9457180d68ce1b14eb5a9951f25ae8cb,
        type: 3}
      propertyPath: m_RootOrder
      value: 9
      objectReference: {fileID: 0}
    - target: {fileID: 3576335614288922936, guid: 9457180d68ce1b14eb5a9951f25ae8cb,
        type: 3}
      propertyPath: m_LocalEulerAnglesHint.x
      value: 56
      objectReference: {fileID: 0}
    - target: {fileID: 3576335614288922936, guid: 9457180d68ce1b14eb5a9951f25ae8cb,
        type: 3}
      propertyPath: m_LocalEulerAnglesHint.y
      value: 56
      objectReference: {fileID: 0}
    - target: {fileID: 3576335614288922936, guid: 9457180d68ce1b14eb5a9951f25ae8cb,
        type: 3}
      propertyPath: m_LocalEulerAnglesHint.z
      value: 56
      objectReference: {fileID: 0}
    - target: {fileID: 3576335614288922936, guid: 9457180d68ce1b14eb5a9951f25ae8cb,
        type: 3}
      propertyPath: m_LocalScale.y
      value: 0.5000001
      objectReference: {fileID: 0}
    - target: {fileID: 3576335614288922936, guid: 9457180d68ce1b14eb5a9951f25ae8cb,
        type: 3}
      propertyPath: m_LocalScale.z
      value: 0.5000001
      objectReference: {fileID: 0}
    m_RemovedComponents: []
  m_SourcePrefab: {fileID: 100100000, guid: 9457180d68ce1b14eb5a9951f25ae8cb, type: 3}
--- !u!4 &357980921 stripped
Transform:
  m_CorrespondingSourceObject: {fileID: 3576335614288922936, guid: 9457180d68ce1b14eb5a9951f25ae8cb,
    type: 3}
  m_PrefabInstance: {fileID: 1669037790}
  m_PrefabAsset: {fileID: 0}
--- !u!4 &424936702 stripped
Transform:
  m_CorrespondingSourceObject: {fileID: 3576335614288922936, guid: 9457180d68ce1b14eb5a9951f25ae8cb,
    type: 3}
  m_PrefabInstance: {fileID: 3576335613866085830}
  m_PrefabAsset: {fileID: 0}
--- !u!4 &459836488 stripped
Transform:
  m_CorrespondingSourceObject: {fileID: 3576335614288922936, guid: 9457180d68ce1b14eb5a9951f25ae8cb,
    type: 3}
  m_PrefabInstance: {fileID: 209595029}
  m_PrefabAsset: {fileID: 0}
--- !u!1 &483497515
GameObject:
  m_ObjectHideFlags: 0
  m_CorrespondingSourceObject: {fileID: 0}
  m_PrefabInstance: {fileID: 0}
  m_PrefabAsset: {fileID: 0}
  serializedVersion: 6
  m_Component:
  - component: {fileID: 483497519}
  - component: {fileID: 483497518}
  - component: {fileID: 483497517}
  - component: {fileID: 483497521}
  - component: {fileID: 483497516}
  - component: {fileID: 483497520}
  m_Layer: 0
  m_Name: Player
  m_TagString: Untagged
  m_Icon: {fileID: 0}
  m_NavMeshLayer: 0
  m_StaticEditorFlags: 0
  m_IsActive: 1
--- !u!135 &483497516
SphereCollider:
  m_ObjectHideFlags: 0
  m_CorrespondingSourceObject: {fileID: 0}
  m_PrefabInstance: {fileID: 0}
  m_PrefabAsset: {fileID: 0}
  m_GameObject: {fileID: 483497515}
  m_Material: {fileID: 0}
  m_IsTrigger: 0
  m_Enabled: 1
  serializedVersion: 2
  m_Radius: 0.5
  m_Center: {x: 0, y: 0, z: 0}
--- !u!23 &483497517
MeshRenderer:
  m_ObjectHideFlags: 0
  m_CorrespondingSourceObject: {fileID: 0}
  m_PrefabInstance: {fileID: 0}
  m_PrefabAsset: {fileID: 0}
  m_GameObject: {fileID: 483497515}
  m_Enabled: 1
  m_CastShadows: 1
  m_ReceiveShadows: 1
  m_DynamicOccludee: 1
  m_MotionVectors: 1
  m_LightProbeUsage: 1
  m_ReflectionProbeUsage: 1
  m_RenderingLayerMask: 1
  m_RendererPriority: 0
  m_Materials:
  - {fileID: 2100000, guid: d1d5bc200f30c8744adfadceb9554abb, type: 2}
  m_StaticBatchInfo:
    firstSubMesh: 0
    subMeshCount: 0
  m_StaticBatchRoot: {fileID: 0}
  m_ProbeAnchor: {fileID: 0}
  m_LightProbeVolumeOverride: {fileID: 0}
  m_ScaleInLightmap: 1
  m_PreserveUVs: 0
  m_IgnoreNormalsForChartDetection: 0
  m_ImportantGI: 0
  m_StitchLightmapSeams: 0
  m_SelectedEditorRenderState: 3
  m_MinimumChartSize: 4
  m_AutoUVMaxDistance: 0.5
  m_AutoUVMaxAngle: 89
  m_LightmapParameters: {fileID: 0}
  m_SortingLayerID: 0
  m_SortingLayer: 0
  m_SortingOrder: 0
--- !u!33 &483497518
MeshFilter:
  m_ObjectHideFlags: 0
  m_CorrespondingSourceObject: {fileID: 0}
  m_PrefabInstance: {fileID: 0}
  m_PrefabAsset: {fileID: 0}
  m_GameObject: {fileID: 483497515}
  m_Mesh: {fileID: 10207, guid: 0000000000000000e000000000000000, type: 0}
--- !u!4 &483497519
Transform:
  m_ObjectHideFlags: 0
  m_CorrespondingSourceObject: {fileID: 0}
  m_PrefabInstance: {fileID: 0}
  m_PrefabAsset: {fileID: 0}
  m_GameObject: {fileID: 483497515}
  m_LocalRotation: {x: 0, y: 0, z: 0, w: 1}
  m_LocalPosition: {x: -2.25, y: 0.5, z: 6.11}
  m_LocalScale: {x: 1, y: 1, z: 1}
  m_Children: []
  m_Father: {fileID: 0}
  m_RootOrder: 3
  m_LocalEulerAnglesHint: {x: 0, y: 0, z: 0}
--- !u!114 &483497520
MonoBehaviour:
  m_ObjectHideFlags: 0
  m_CorrespondingSourceObject: {fileID: 0}
  m_PrefabInstance: {fileID: 0}
  m_PrefabAsset: {fileID: 0}
  m_GameObject: {fileID: 483497515}
  m_Enabled: 1
  m_EditorHideFlags: 0
  m_Script: {fileID: 11500000, guid: efb6caf12eb902f4383685b35b761774, type: 3}
  m_Name: 
  m_EditorClassIdentifier: 
  speed: 20
  countText: {fileID: 1587734759}
  winText: {fileID: 2068362198}
--- !u!54 &483497521
Rigidbody:
  m_ObjectHideFlags: 0
  m_CorrespondingSourceObject: {fileID: 0}
  m_PrefabInstance: {fileID: 0}
  m_PrefabAsset: {fileID: 0}
  m_GameObject: {fileID: 483497515}
  serializedVersion: 2
  m_Mass: 1
  m_Drag: 0
  m_AngularDrag: 0.05
  m_UseGravity: 1
  m_IsKinematic: 0
  m_Interpolate: 0
  m_Constraints: 0
  m_CollisionDetection: 0
--- !u!4 &531434895 stripped
Transform:
  m_CorrespondingSourceObject: {fileID: 3576335614288922936, guid: 9457180d68ce1b14eb5a9951f25ae8cb,
    type: 3}
  m_PrefabInstance: {fileID: 869929435}
  m_PrefabAsset: {fileID: 0}
--- !u!1 &534669902
GameObject:
  m_ObjectHideFlags: 0
  m_CorrespondingSourceObject: {fileID: 0}
  m_PrefabInstance: {fileID: 0}
  m_PrefabAsset: {fileID: 0}
  serializedVersion: 6
  m_Component:
  - component: {fileID: 534669905}
  - component: {fileID: 534669904}
  - component: {fileID: 534669903}
  - component: {fileID: 534669906}
  m_Layer: 0
  m_Name: Main Camera
  m_TagString: MainCamera
  m_Icon: {fileID: 0}
  m_NavMeshLayer: 0
  m_StaticEditorFlags: 0
  m_IsActive: 1
--- !u!81 &534669903
AudioListener:
  m_ObjectHideFlags: 0
  m_CorrespondingSourceObject: {fileID: 0}
  m_PrefabInstance: {fileID: 0}
  m_PrefabAsset: {fileID: 0}
  m_GameObject: {fileID: 534669902}
  m_Enabled: 1
--- !u!20 &534669904
Camera:
  m_ObjectHideFlags: 0
  m_CorrespondingSourceObject: {fileID: 0}
  m_PrefabInstance: {fileID: 0}
  m_PrefabAsset: {fileID: 0}
  m_GameObject: {fileID: 534669902}
  m_Enabled: 1
  serializedVersion: 2
  m_ClearFlags: 1
  m_BackGroundColor: {r: 0.19215687, g: 0.3019608, b: 0.4745098, a: 0}
  m_projectionMatrixMode: 1
  m_SensorSize: {x: 36, y: 24}
  m_LensShift: {x: 0, y: 0}
  m_GateFitMode: 2
  m_FocalLength: 50
  m_NormalizedViewPortRect:
    serializedVersion: 2
    x: 0
    y: 0
    width: 1
    height: 1
  near clip plane: 0.3
  far clip plane: 1000
  field of view: 60
  orthographic: 0
  orthographic size: 5
  m_Depth: -1
  m_CullingMask:
    serializedVersion: 2
    m_Bits: 4294967295
  m_RenderingPath: -1
  m_TargetTexture: {fileID: 0}
  m_TargetDisplay: 0
  m_TargetEye: 3
  m_HDR: 1
  m_AllowMSAA: 1
  m_AllowDynamicResolution: 0
  m_ForceIntoRT: 0
  m_OcclusionCulling: 1
  m_StereoConvergence: 10
  m_StereoSeparation: 0.022
--- !u!4 &534669905
Transform:
  m_ObjectHideFlags: 0
  m_CorrespondingSourceObject: {fileID: 0}
  m_PrefabInstance: {fileID: 0}
  m_PrefabAsset: {fileID: 0}
  m_GameObject: {fileID: 534669902}
  m_LocalRotation: {x: 0.3420201, y: 0, z: 0, w: 0.9396927}
  m_LocalPosition: {x: 0, y: 15, z: -20}
  m_LocalScale: {x: 1, y: 1, z: 1}
  m_Children: []
  m_Father: {fileID: 0}
  m_RootOrder: 0
  m_LocalEulerAnglesHint: {x: 40, y: 0, z: 0}
--- !u!114 &534669906
MonoBehaviour:
  m_ObjectHideFlags: 0
  m_CorrespondingSourceObject: {fileID: 0}
  m_PrefabInstance: {fileID: 0}
  m_PrefabAsset: {fileID: 0}
  m_GameObject: {fileID: 534669902}
  m_Enabled: 1
  m_EditorHideFlags: 0
  m_Script: {fileID: 11500000, guid: 2119a72a3a08725408229aa61fcbebd2, type: 3}
  m_Name: 
  m_EditorClassIdentifier: 
  player: {fileID: 483497515}
--- !u!4 &554493083 stripped
Transform:
  m_CorrespondingSourceObject: {fileID: 3576335614288922936, guid: 9457180d68ce1b14eb5a9951f25ae8cb,
    type: 3}
  m_PrefabInstance: {fileID: 1381904601}
  m_PrefabAsset: {fileID: 0}
--- !u!1 &578511368
GameObject:
  m_ObjectHideFlags: 0
  m_CorrespondingSourceObject: {fileID: 0}
  m_PrefabInstance: {fileID: 0}
  m_PrefabAsset: {fileID: 0}
  serializedVersion: 6
  m_Component:
  - component: {fileID: 578511369}
  m_Layer: 0
  m_Name: Walls
  m_TagString: Untagged
  m_Icon: {fileID: 0}
  m_NavMeshLayer: 0
  m_StaticEditorFlags: 0
  m_IsActive: 1
--- !u!4 &578511369
Transform:
  m_ObjectHideFlags: 0
  m_CorrespondingSourceObject: {fileID: 0}
  m_PrefabInstance: {fileID: 0}
  m_PrefabAsset: {fileID: 0}
  m_GameObject: {fileID: 578511368}
  m_LocalRotation: {x: 0, y: 0, z: 0, w: 1}
  m_LocalPosition: {x: 0, y: 0, z: 0}
  m_LocalScale: {x: 1, y: 1, z: 1}
  m_Children:
  - {fileID: 831773482}
  - {fileID: 1179304622}
  - {fileID: 635644284}
  - {fileID: 2076078676}
  m_Father: {fileID: 0}
  m_RootOrder: 4
  m_LocalEulerAnglesHint: {x: 0, y: 0, z: 0}
--- !u!1 &635644283
GameObject:
  m_ObjectHideFlags: 0
  m_CorrespondingSourceObject: {fileID: 0}
  m_PrefabInstance: {fileID: 0}
  m_PrefabAsset: {fileID: 0}
  serializedVersion: 6
  m_Component:
  - component: {fileID: 635644284}
  - component: {fileID: 635644287}
  - component: {fileID: 635644286}
  - component: {fileID: 635644285}
  m_Layer: 0
  m_Name: NorthWall
  m_TagString: Untagged
  m_Icon: {fileID: 0}
  m_NavMeshLayer: 0
  m_StaticEditorFlags: 0
  m_IsActive: 1
--- !u!4 &635644284
Transform:
  m_ObjectHideFlags: 0
  m_CorrespondingSourceObject: {fileID: 0}
  m_PrefabInstance: {fileID: 0}
  m_PrefabAsset: {fileID: 0}
  m_GameObject: {fileID: 635644283}
  m_LocalRotation: {x: 0, y: -0.7071068, z: 0, w: 0.7071068}
  m_LocalPosition: {x: 0, y: 1, z: 24.75}
  m_LocalScale: {x: 0.5, y: 2, z: 50}
  m_Children: []
  m_Father: {fileID: 578511369}
  m_RootOrder: 2
  m_LocalEulerAnglesHint: {x: 0, y: -90, z: 0}
--- !u!65 &635644285
BoxCollider:
  m_ObjectHideFlags: 0
  m_CorrespondingSourceObject: {fileID: 0}
  m_PrefabInstance: {fileID: 0}
  m_PrefabAsset: {fileID: 0}
  m_GameObject: {fileID: 635644283}
  m_Material: {fileID: 0}
  m_IsTrigger: 0
  m_Enabled: 1
  serializedVersion: 2
  m_Size: {x: 1, y: 1, z: 1}
  m_Center: {x: 0, y: 0, z: 0}
--- !u!23 &635644286
MeshRenderer:
  m_ObjectHideFlags: 0
  m_CorrespondingSourceObject: {fileID: 0}
  m_PrefabInstance: {fileID: 0}
  m_PrefabAsset: {fileID: 0}
  m_GameObject: {fileID: 635644283}
  m_Enabled: 1
  m_CastShadows: 1
  m_ReceiveShadows: 1
  m_DynamicOccludee: 1
  m_MotionVectors: 1
  m_LightProbeUsage: 1
  m_ReflectionProbeUsage: 1
  m_RenderingLayerMask: 1
  m_RendererPriority: 0
  m_Materials:
  - {fileID: 10303, guid: 0000000000000000f000000000000000, type: 0}
  m_StaticBatchInfo:
    firstSubMesh: 0
    subMeshCount: 0
  m_StaticBatchRoot: {fileID: 0}
  m_ProbeAnchor: {fileID: 0}
  m_LightProbeVolumeOverride: {fileID: 0}
  m_ScaleInLightmap: 1
  m_PreserveUVs: 0
  m_IgnoreNormalsForChartDetection: 0
  m_ImportantGI: 0
  m_StitchLightmapSeams: 0
  m_SelectedEditorRenderState: 3
  m_MinimumChartSize: 4
  m_AutoUVMaxDistance: 0.5
  m_AutoUVMaxAngle: 89
  m_LightmapParameters: {fileID: 0}
  m_SortingLayerID: 0
  m_SortingLayer: 0
  m_SortingOrder: 0
--- !u!33 &635644287
MeshFilter:
  m_ObjectHideFlags: 0
  m_CorrespondingSourceObject: {fileID: 0}
  m_PrefabInstance: {fileID: 0}
  m_PrefabAsset: {fileID: 0}
  m_GameObject: {fileID: 635644283}
  m_Mesh: {fileID: 10202, guid: 0000000000000000e000000000000000, type: 0}
--- !u!1001 &644500102
PrefabInstance:
  m_ObjectHideFlags: 0
  serializedVersion: 2
  m_Modification:
    m_TransformParent: {fileID: 988901801}
    m_Modifications:
    - target: {fileID: 3576335614288922943, guid: 9457180d68ce1b14eb5a9951f25ae8cb,
        type: 3}
      propertyPath: m_Name
      value: PickUp (7)
      objectReference: {fileID: 0}
    - target: {fileID: 3576335614288922936, guid: 9457180d68ce1b14eb5a9951f25ae8cb,
        type: 3}
      propertyPath: m_LocalPosition.x
      value: -7.38
      objectReference: {fileID: 0}
    - target: {fileID: 3576335614288922936, guid: 9457180d68ce1b14eb5a9951f25ae8cb,
        type: 3}
      propertyPath: m_LocalPosition.y
      value: 0.37
      objectReference: {fileID: 0}
    - target: {fileID: 3576335614288922936, guid: 9457180d68ce1b14eb5a9951f25ae8cb,
        type: 3}
      propertyPath: m_LocalPosition.z
      value: 15.2
      objectReference: {fileID: 0}
    - target: {fileID: 3576335614288922936, guid: 9457180d68ce1b14eb5a9951f25ae8cb,
        type: 3}
      propertyPath: m_LocalRotation.x
      value: 0.5606031
      objectReference: {fileID: 0}
    - target: {fileID: 3576335614288922936, guid: 9457180d68ce1b14eb5a9951f25ae8cb,
        type: 3}
      propertyPath: m_LocalRotation.y
      value: 0.1713936
      objectReference: {fileID: 0}
    - target: {fileID: 3576335614288922936, guid: 9457180d68ce1b14eb5a9951f25ae8cb,
        type: 3}
      propertyPath: m_LocalRotation.z
      value: 0.17139359
      objectReference: {fileID: 0}
    - target: {fileID: 3576335614288922936, guid: 9457180d68ce1b14eb5a9951f25ae8cb,
        type: 3}
      propertyPath: m_LocalRotation.w
      value: 0.79181606
      objectReference: {fileID: 0}
    - target: {fileID: 3576335614288922936, guid: 9457180d68ce1b14eb5a9951f25ae8cb,
        type: 3}
      propertyPath: m_RootOrder
      value: 7
      objectReference: {fileID: 0}
    - target: {fileID: 3576335614288922936, guid: 9457180d68ce1b14eb5a9951f25ae8cb,
        type: 3}
      propertyPath: m_LocalEulerAnglesHint.x
      value: 56
      objectReference: {fileID: 0}
    - target: {fileID: 3576335614288922936, guid: 9457180d68ce1b14eb5a9951f25ae8cb,
        type: 3}
      propertyPath: m_LocalEulerAnglesHint.y
      value: 56
      objectReference: {fileID: 0}
    - target: {fileID: 3576335614288922936, guid: 9457180d68ce1b14eb5a9951f25ae8cb,
        type: 3}
      propertyPath: m_LocalEulerAnglesHint.z
      value: 56
      objectReference: {fileID: 0}
    m_RemovedComponents: []
  m_SourcePrefab: {fileID: 100100000, guid: 9457180d68ce1b14eb5a9951f25ae8cb, type: 3}
--- !u!4 &673869753 stripped
Transform:
  m_CorrespondingSourceObject: {fileID: 3576335614288922936, guid: 9457180d68ce1b14eb5a9951f25ae8cb,
    type: 3}
  m_PrefabInstance: {fileID: 332659764}
  m_PrefabAsset: {fileID: 0}
--- !u!4 &679790899 stripped
Transform:
  m_CorrespondingSourceObject: {fileID: 3576335614288922936, guid: 9457180d68ce1b14eb5a9951f25ae8cb,
    type: 3}
  m_PrefabInstance: {fileID: 1505671189}
  m_PrefabAsset: {fileID: 0}
--- !u!1001 &729899346
PrefabInstance:
  m_ObjectHideFlags: 0
  serializedVersion: 2
  m_Modification:
    m_TransformParent: {fileID: 988901801}
    m_Modifications:
    - target: {fileID: 3576335614288922943, guid: 9457180d68ce1b14eb5a9951f25ae8cb,
        type: 3}
      propertyPath: m_Name
      value: PickUp (15)
      objectReference: {fileID: 0}
    - target: {fileID: 3576335614288922936, guid: 9457180d68ce1b14eb5a9951f25ae8cb,
        type: 3}
      propertyPath: m_LocalPosition.x
      value: 5
      objectReference: {fileID: 0}
    - target: {fileID: 3576335614288922936, guid: 9457180d68ce1b14eb5a9951f25ae8cb,
        type: 3}
      propertyPath: m_LocalPosition.y
      value: 0.5
      objectReference: {fileID: 0}
    - target: {fileID: 3576335614288922936, guid: 9457180d68ce1b14eb5a9951f25ae8cb,
        type: 3}
      propertyPath: m_LocalPosition.z
      value: 2.8
      objectReference: {fileID: 0}
    - target: {fileID: 3576335614288922936, guid: 9457180d68ce1b14eb5a9951f25ae8cb,
        type: 3}
      propertyPath: m_LocalRotation.x
      value: 0.5606031
      objectReference: {fileID: 0}
    - target: {fileID: 3576335614288922936, guid: 9457180d68ce1b14eb5a9951f25ae8cb,
        type: 3}
      propertyPath: m_LocalRotation.y
      value: 0.1713936
      objectReference: {fileID: 0}
    - target: {fileID: 3576335614288922936, guid: 9457180d68ce1b14eb5a9951f25ae8cb,
        type: 3}
      propertyPath: m_LocalRotation.z
      value: 0.17139359
      objectReference: {fileID: 0}
    - target: {fileID: 3576335614288922936, guid: 9457180d68ce1b14eb5a9951f25ae8cb,
        type: 3}
      propertyPath: m_LocalRotation.w
      value: 0.79181606
      objectReference: {fileID: 0}
    - target: {fileID: 3576335614288922936, guid: 9457180d68ce1b14eb5a9951f25ae8cb,
        type: 3}
      propertyPath: m_RootOrder
      value: 15
      objectReference: {fileID: 0}
    - target: {fileID: 3576335614288922936, guid: 9457180d68ce1b14eb5a9951f25ae8cb,
        type: 3}
      propertyPath: m_LocalEulerAnglesHint.x
      value: 56
      objectReference: {fileID: 0}
    - target: {fileID: 3576335614288922936, guid: 9457180d68ce1b14eb5a9951f25ae8cb,
        type: 3}
      propertyPath: m_LocalEulerAnglesHint.y
      value: 56
      objectReference: {fileID: 0}
    - target: {fileID: 3576335614288922936, guid: 9457180d68ce1b14eb5a9951f25ae8cb,
        type: 3}
      propertyPath: m_LocalEulerAnglesHint.z
      value: 56
      objectReference: {fileID: 0}
    - target: {fileID: 3576335614288922936, guid: 9457180d68ce1b14eb5a9951f25ae8cb,
        type: 3}
      propertyPath: m_LocalScale.y
      value: 0.5000001
      objectReference: {fileID: 0}
    - target: {fileID: 3576335614288922936, guid: 9457180d68ce1b14eb5a9951f25ae8cb,
        type: 3}
      propertyPath: m_LocalScale.z
      value: 0.5000001
      objectReference: {fileID: 0}
    m_RemovedComponents: []
  m_SourcePrefab: {fileID: 100100000, guid: 9457180d68ce1b14eb5a9951f25ae8cb, type: 3}
--- !u!1 &831773481
GameObject:
  m_ObjectHideFlags: 0
  m_CorrespondingSourceObject: {fileID: 0}
  m_PrefabInstance: {fileID: 0}
  m_PrefabAsset: {fileID: 0}
  serializedVersion: 6
  m_Component:
  - component: {fileID: 831773482}
  - component: {fileID: 831773485}
  - component: {fileID: 831773484}
  - component: {fileID: 831773483}
  m_Layer: 0
  m_Name: WestWall
  m_TagString: Untagged
  m_Icon: {fileID: 0}
  m_NavMeshLayer: 0
  m_StaticEditorFlags: 0
  m_IsActive: 1
--- !u!4 &831773482
Transform:
  m_ObjectHideFlags: 0
  m_CorrespondingSourceObject: {fileID: 0}
  m_PrefabInstance: {fileID: 0}
  m_PrefabAsset: {fileID: 0}
  m_GameObject: {fileID: 831773481}
  m_LocalRotation: {x: 0, y: 0, z: 0, w: 1}
  m_LocalPosition: {x: -24.75, y: 1, z: 0}
  m_LocalScale: {x: 0.5, y: 2, z: 50}
  m_Children: []
  m_Father: {fileID: 578511369}
  m_RootOrder: 0
  m_LocalEulerAnglesHint: {x: 0, y: 0, z: 0}
--- !u!65 &831773483
BoxCollider:
  m_ObjectHideFlags: 0
  m_CorrespondingSourceObject: {fileID: 0}
  m_PrefabInstance: {fileID: 0}
  m_PrefabAsset: {fileID: 0}
  m_GameObject: {fileID: 831773481}
  m_Material: {fileID: 0}
  m_IsTrigger: 0
  m_Enabled: 1
  serializedVersion: 2
  m_Size: {x: 1, y: 1, z: 1}
  m_Center: {x: 0, y: 0, z: 0}
--- !u!23 &831773484
MeshRenderer:
  m_ObjectHideFlags: 0
  m_CorrespondingSourceObject: {fileID: 0}
  m_PrefabInstance: {fileID: 0}
  m_PrefabAsset: {fileID: 0}
  m_GameObject: {fileID: 831773481}
  m_Enabled: 1
  m_CastShadows: 1
  m_ReceiveShadows: 1
  m_DynamicOccludee: 1
  m_MotionVectors: 1
  m_LightProbeUsage: 1
  m_ReflectionProbeUsage: 1
  m_RenderingLayerMask: 1
  m_RendererPriority: 0
  m_Materials:
  - {fileID: 10303, guid: 0000000000000000f000000000000000, type: 0}
  m_StaticBatchInfo:
    firstSubMesh: 0
    subMeshCount: 0
  m_StaticBatchRoot: {fileID: 0}
  m_ProbeAnchor: {fileID: 0}
  m_LightProbeVolumeOverride: {fileID: 0}
  m_ScaleInLightmap: 1
  m_PreserveUVs: 0
  m_IgnoreNormalsForChartDetection: 0
  m_ImportantGI: 0
  m_StitchLightmapSeams: 0
  m_SelectedEditorRenderState: 3
  m_MinimumChartSize: 4
  m_AutoUVMaxDistance: 0.5
  m_AutoUVMaxAngle: 89
  m_LightmapParameters: {fileID: 0}
  m_SortingLayerID: 0
  m_SortingLayer: 0
  m_SortingOrder: 0
--- !u!33 &831773485
MeshFilter:
  m_ObjectHideFlags: 0
  m_CorrespondingSourceObject: {fileID: 0}
  m_PrefabInstance: {fileID: 0}
  m_PrefabAsset: {fileID: 0}
  m_GameObject: {fileID: 831773481}
  m_Mesh: {fileID: 10202, guid: 0000000000000000e000000000000000, type: 0}
--- !u!1001 &869929435
PrefabInstance:
  m_ObjectHideFlags: 0
  serializedVersion: 2
  m_Modification:
    m_TransformParent: {fileID: 988901801}
    m_Modifications:
    - target: {fileID: 3576335614288922943, guid: 9457180d68ce1b14eb5a9951f25ae8cb,
        type: 3}
      propertyPath: m_Name
      value: PickUp (5)
      objectReference: {fileID: 0}
    - target: {fileID: 3576335614288922936, guid: 9457180d68ce1b14eb5a9951f25ae8cb,
        type: 3}
      propertyPath: m_LocalPosition.x
      value: -11.5
      objectReference: {fileID: 0}
    - target: {fileID: 3576335614288922936, guid: 9457180d68ce1b14eb5a9951f25ae8cb,
        type: 3}
      propertyPath: m_LocalPosition.y
      value: 0.5
      objectReference: {fileID: 0}
    - target: {fileID: 3576335614288922936, guid: 9457180d68ce1b14eb5a9951f25ae8cb,
        type: 3}
      propertyPath: m_LocalPosition.z
      value: 10.9
      objectReference: {fileID: 0}
    - target: {fileID: 3576335614288922936, guid: 9457180d68ce1b14eb5a9951f25ae8cb,
        type: 3}
      propertyPath: m_LocalRotation.x
      value: 0.5606031
      objectReference: {fileID: 0}
    - target: {fileID: 3576335614288922936, guid: 9457180d68ce1b14eb5a9951f25ae8cb,
        type: 3}
      propertyPath: m_LocalRotation.y
      value: 0.1713936
      objectReference: {fileID: 0}
    - target: {fileID: 3576335614288922936, guid: 9457180d68ce1b14eb5a9951f25ae8cb,
        type: 3}
      propertyPath: m_LocalRotation.z
      value: 0.17139359
      objectReference: {fileID: 0}
    - target: {fileID: 3576335614288922936, guid: 9457180d68ce1b14eb5a9951f25ae8cb,
        type: 3}
      propertyPath: m_LocalRotation.w
      value: 0.79181606
      objectReference: {fileID: 0}
    - target: {fileID: 3576335614288922936, guid: 9457180d68ce1b14eb5a9951f25ae8cb,
        type: 3}
      propertyPath: m_RootOrder
      value: 5
      objectReference: {fileID: 0}
    - target: {fileID: 3576335614288922936, guid: 9457180d68ce1b14eb5a9951f25ae8cb,
        type: 3}
      propertyPath: m_LocalEulerAnglesHint.x
      value: 56
      objectReference: {fileID: 0}
    - target: {fileID: 3576335614288922936, guid: 9457180d68ce1b14eb5a9951f25ae8cb,
        type: 3}
      propertyPath: m_LocalEulerAnglesHint.y
      value: 56
      objectReference: {fileID: 0}
    - target: {fileID: 3576335614288922936, guid: 9457180d68ce1b14eb5a9951f25ae8cb,
        type: 3}
      propertyPath: m_LocalEulerAnglesHint.z
      value: 56
      objectReference: {fileID: 0}
    - target: {fileID: 3576335614288922936, guid: 9457180d68ce1b14eb5a9951f25ae8cb,
        type: 3}
      propertyPath: m_LocalScale.y
      value: 0.5000001
      objectReference: {fileID: 0}
    - target: {fileID: 3576335614288922936, guid: 9457180d68ce1b14eb5a9951f25ae8cb,
        type: 3}
      propertyPath: m_LocalScale.z
      value: 0.5000001
      objectReference: {fileID: 0}
    m_RemovedComponents: []
  m_SourcePrefab: {fileID: 100100000, guid: 9457180d68ce1b14eb5a9951f25ae8cb, type: 3}
--- !u!4 &946584747 stripped
Transform:
  m_CorrespondingSourceObject: {fileID: 3576335614288922936, guid: 9457180d68ce1b14eb5a9951f25ae8cb,
    type: 3}
  m_PrefabInstance: {fileID: 1167997467}
  m_PrefabAsset: {fileID: 0}
--- !u!1 &988901800
GameObject:
  m_ObjectHideFlags: 0
  m_CorrespondingSourceObject: {fileID: 0}
  m_PrefabInstance: {fileID: 0}
  m_PrefabAsset: {fileID: 0}
  serializedVersion: 6
  m_Component:
  - component: {fileID: 988901801}
  m_Layer: 0
  m_Name: PickUps
  m_TagString: Untagged
  m_Icon: {fileID: 0}
  m_NavMeshLayer: 0
  m_StaticEditorFlags: 0
  m_IsActive: 1
--- !u!4 &988901801
Transform:
  m_ObjectHideFlags: 0
  m_CorrespondingSourceObject: {fileID: 0}
  m_PrefabInstance: {fileID: 0}
  m_PrefabAsset: {fileID: 0}
  m_GameObject: {fileID: 988901800}
  m_LocalRotation: {x: 0, y: 0, z: 0, w: 1}
  m_LocalPosition: {x: 0, y: 0, z: 0}
  m_LocalScale: {x: 1, y: 1, z: 1}
  m_Children:
  - {fileID: 424936702}
  - {fileID: 1464747887}
  - {fileID: 357980921}
  - {fileID: 2085982140}
  - {fileID: 554493083}
  - {fileID: 531434895}
  - {fileID: 64440985}
  - {fileID: 1900366289}
  - {fileID: 946584747}
  - {fileID: 673869753}
  - {fileID: 1177308251}
  - {fileID: 1194653665}
  - {fileID: 459836488}
  - {fileID: 1874178603}
  - {fileID: 679790899}
  - {fileID: 1751531490}
  - {fileID: 1217117790}
  m_Father: {fileID: 0}
  m_RootOrder: 5
  m_LocalEulerAnglesHint: {x: 0, y: 0, z: 0}
--- !u!1001 &1013734917
PrefabInstance:
  m_ObjectHideFlags: 0
  serializedVersion: 2
  m_Modification:
    m_TransformParent: {fileID: 988901801}
    m_Modifications:
    - target: {fileID: 3576335614288922943, guid: 9457180d68ce1b14eb5a9951f25ae8cb,
        type: 3}
      propertyPath: m_Name
      value: PickUp (1)
      objectReference: {fileID: 0}
    - target: {fileID: 3576335614288922936, guid: 9457180d68ce1b14eb5a9951f25ae8cb,
        type: 3}
      propertyPath: m_LocalPosition.x
      value: -4.4
      objectReference: {fileID: 0}
    - target: {fileID: 3576335614288922936, guid: 9457180d68ce1b14eb5a9951f25ae8cb,
        type: 3}
      propertyPath: m_LocalPosition.y
      value: 0.5
      objectReference: {fileID: 0}
    - target: {fileID: 3576335614288922936, guid: 9457180d68ce1b14eb5a9951f25ae8cb,
        type: 3}
      propertyPath: m_LocalPosition.z
      value: -0.8
      objectReference: {fileID: 0}
    - target: {fileID: 3576335614288922936, guid: 9457180d68ce1b14eb5a9951f25ae8cb,
        type: 3}
      propertyPath: m_LocalRotation.x
      value: 0.5606031
      objectReference: {fileID: 0}
    - target: {fileID: 3576335614288922936, guid: 9457180d68ce1b14eb5a9951f25ae8cb,
        type: 3}
      propertyPath: m_LocalRotation.y
      value: 0.1713936
      objectReference: {fileID: 0}
    - target: {fileID: 3576335614288922936, guid: 9457180d68ce1b14eb5a9951f25ae8cb,
        type: 3}
      propertyPath: m_LocalRotation.z
      value: 0.17139359
      objectReference: {fileID: 0}
    - target: {fileID: 3576335614288922936, guid: 9457180d68ce1b14eb5a9951f25ae8cb,
        type: 3}
      propertyPath: m_LocalRotation.w
      value: 0.79181606
      objectReference: {fileID: 0}
    - target: {fileID: 3576335614288922936, guid: 9457180d68ce1b14eb5a9951f25ae8cb,
        type: 3}
      propertyPath: m_RootOrder
      value: 1
      objectReference: {fileID: 0}
    - target: {fileID: 3576335614288922936, guid: 9457180d68ce1b14eb5a9951f25ae8cb,
        type: 3}
      propertyPath: m_LocalEulerAnglesHint.x
      value: 56
      objectReference: {fileID: 0}
    - target: {fileID: 3576335614288922936, guid: 9457180d68ce1b14eb5a9951f25ae8cb,
        type: 3}
      propertyPath: m_LocalEulerAnglesHint.y
      value: 56
      objectReference: {fileID: 0}
    - target: {fileID: 3576335614288922936, guid: 9457180d68ce1b14eb5a9951f25ae8cb,
        type: 3}
      propertyPath: m_LocalEulerAnglesHint.z
      value: 56
      objectReference: {fileID: 0}
    - target: {fileID: 3576335614288922936, guid: 9457180d68ce1b14eb5a9951f25ae8cb,
        type: 3}
      propertyPath: m_LocalScale.y
      value: 0.5000001
      objectReference: {fileID: 0}
    - target: {fileID: 3576335614288922936, guid: 9457180d68ce1b14eb5a9951f25ae8cb,
        type: 3}
      propertyPath: m_LocalScale.z
      value: 0.5000001
      objectReference: {fileID: 0}
    m_RemovedComponents: []
  m_SourcePrefab: {fileID: 100100000, guid: 9457180d68ce1b14eb5a9951f25ae8cb, type: 3}
--- !u!1001 &1085934261
PrefabInstance:
  m_ObjectHideFlags: 0
  serializedVersion: 2
  m_Modification:
    m_TransformParent: {fileID: 988901801}
    m_Modifications:
    - target: {fileID: 3576335614288922943, guid: 9457180d68ce1b14eb5a9951f25ae8cb,
        type: 3}
      propertyPath: m_Name
      value: PickUp (10)
      objectReference: {fileID: 0}
    - target: {fileID: 3576335614288922936, guid: 9457180d68ce1b14eb5a9951f25ae8cb,
        type: 3}
      propertyPath: m_LocalPosition.x
      value: 2.6
      objectReference: {fileID: 0}
    - target: {fileID: 3576335614288922936, guid: 9457180d68ce1b14eb5a9951f25ae8cb,
        type: 3}
      propertyPath: m_LocalPosition.y
      value: 0.5
      objectReference: {fileID: 0}
    - target: {fileID: 3576335614288922936, guid: 9457180d68ce1b14eb5a9951f25ae8cb,
        type: 3}
      propertyPath: m_LocalPosition.z
      value: 15.7
      objectReference: {fileID: 0}
    - target: {fileID: 3576335614288922936, guid: 9457180d68ce1b14eb5a9951f25ae8cb,
        type: 3}
      propertyPath: m_LocalRotation.x
      value: 0.5606031
      objectReference: {fileID: 0}
    - target: {fileID: 3576335614288922936, guid: 9457180d68ce1b14eb5a9951f25ae8cb,
        type: 3}
      propertyPath: m_LocalRotation.y
      value: 0.1713936
      objectReference: {fileID: 0}
    - target: {fileID: 3576335614288922936, guid: 9457180d68ce1b14eb5a9951f25ae8cb,
        type: 3}
      propertyPath: m_LocalRotation.z
      value: 0.17139359
      objectReference: {fileID: 0}
    - target: {fileID: 3576335614288922936, guid: 9457180d68ce1b14eb5a9951f25ae8cb,
        type: 3}
      propertyPath: m_LocalRotation.w
      value: 0.79181606
      objectReference: {fileID: 0}
    - target: {fileID: 3576335614288922936, guid: 9457180d68ce1b14eb5a9951f25ae8cb,
        type: 3}
      propertyPath: m_RootOrder
      value: 10
      objectReference: {fileID: 0}
    - target: {fileID: 3576335614288922936, guid: 9457180d68ce1b14eb5a9951f25ae8cb,
        type: 3}
      propertyPath: m_LocalEulerAnglesHint.x
      value: 56
      objectReference: {fileID: 0}
    - target: {fileID: 3576335614288922936, guid: 9457180d68ce1b14eb5a9951f25ae8cb,
        type: 3}
      propertyPath: m_LocalEulerAnglesHint.y
      value: 56
      objectReference: {fileID: 0}
    - target: {fileID: 3576335614288922936, guid: 9457180d68ce1b14eb5a9951f25ae8cb,
        type: 3}
      propertyPath: m_LocalEulerAnglesHint.z
      value: 56
      objectReference: {fileID: 0}
    - target: {fileID: 3576335614288922936, guid: 9457180d68ce1b14eb5a9951f25ae8cb,
        type: 3}
      propertyPath: m_LocalScale.y
      value: 0.5000001
      objectReference: {fileID: 0}
    - target: {fileID: 3576335614288922936, guid: 9457180d68ce1b14eb5a9951f25ae8cb,
        type: 3}
      propertyPath: m_LocalScale.z
      value: 0.5000001
      objectReference: {fileID: 0}
    m_RemovedComponents: []
  m_SourcePrefab: {fileID: 100100000, guid: 9457180d68ce1b14eb5a9951f25ae8cb, type: 3}
--- !u!1001 &1167663363
PrefabInstance:
  m_ObjectHideFlags: 0
  serializedVersion: 2
  m_Modification:
    m_TransformParent: {fileID: 988901801}
    m_Modifications:
    - target: {fileID: 3576335614288922943, guid: 9457180d68ce1b14eb5a9951f25ae8cb,
        type: 3}
      propertyPath: m_Name
      value: PickUp (16)
      objectReference: {fileID: 0}
    - target: {fileID: 3576335614288922936, guid: 9457180d68ce1b14eb5a9951f25ae8cb,
        type: 3}
      propertyPath: m_LocalPosition.x
      value: 2.5
      objectReference: {fileID: 0}
    - target: {fileID: 3576335614288922936, guid: 9457180d68ce1b14eb5a9951f25ae8cb,
        type: 3}
      propertyPath: m_LocalPosition.y
      value: 0.5
      objectReference: {fileID: 0}
    - target: {fileID: 3576335614288922936, guid: 9457180d68ce1b14eb5a9951f25ae8cb,
        type: 3}
      propertyPath: m_LocalPosition.z
      value: 0.4
      objectReference: {fileID: 0}
    - target: {fileID: 3576335614288922936, guid: 9457180d68ce1b14eb5a9951f25ae8cb,
        type: 3}
      propertyPath: m_LocalRotation.x
      value: 0.5606031
      objectReference: {fileID: 0}
    - target: {fileID: 3576335614288922936, guid: 9457180d68ce1b14eb5a9951f25ae8cb,
        type: 3}
      propertyPath: m_LocalRotation.y
      value: 0.1713936
      objectReference: {fileID: 0}
    - target: {fileID: 3576335614288922936, guid: 9457180d68ce1b14eb5a9951f25ae8cb,
        type: 3}
      propertyPath: m_LocalRotation.z
      value: 0.17139359
      objectReference: {fileID: 0}
    - target: {fileID: 3576335614288922936, guid: 9457180d68ce1b14eb5a9951f25ae8cb,
        type: 3}
      propertyPath: m_LocalRotation.w
      value: 0.79181606
      objectReference: {fileID: 0}
    - target: {fileID: 3576335614288922936, guid: 9457180d68ce1b14eb5a9951f25ae8cb,
        type: 3}
      propertyPath: m_RootOrder
      value: 16
      objectReference: {fileID: 0}
    - target: {fileID: 3576335614288922936, guid: 9457180d68ce1b14eb5a9951f25ae8cb,
        type: 3}
      propertyPath: m_LocalEulerAnglesHint.x
      value: 56
      objectReference: {fileID: 0}
    - target: {fileID: 3576335614288922936, guid: 9457180d68ce1b14eb5a9951f25ae8cb,
        type: 3}
      propertyPath: m_LocalEulerAnglesHint.y
      value: 56
      objectReference: {fileID: 0}
    - target: {fileID: 3576335614288922936, guid: 9457180d68ce1b14eb5a9951f25ae8cb,
        type: 3}
      propertyPath: m_LocalEulerAnglesHint.z
      value: 56
      objectReference: {fileID: 0}
    - target: {fileID: 3576335614288922936, guid: 9457180d68ce1b14eb5a9951f25ae8cb,
        type: 3}
      propertyPath: m_LocalScale.y
      value: 0.5000001
      objectReference: {fileID: 0}
    - target: {fileID: 3576335614288922936, guid: 9457180d68ce1b14eb5a9951f25ae8cb,
        type: 3}
      propertyPath: m_LocalScale.z
      value: 0.5000001
      objectReference: {fileID: 0}
    m_RemovedComponents: []
  m_SourcePrefab: {fileID: 100100000, guid: 9457180d68ce1b14eb5a9951f25ae8cb, type: 3}
--- !u!1001 &1167997467
PrefabInstance:
  m_ObjectHideFlags: 0
  serializedVersion: 2
  m_Modification:
    m_TransformParent: {fileID: 988901801}
    m_Modifications:
    - target: {fileID: 3576335614288922943, guid: 9457180d68ce1b14eb5a9951f25ae8cb,
        type: 3}
      propertyPath: m_Name
      value: PickUp (8)
      objectReference: {fileID: 0}
    - target: {fileID: 3576335614288922936, guid: 9457180d68ce1b14eb5a9951f25ae8cb,
        type: 3}
      propertyPath: m_LocalPosition.x
      value: -3.7
      objectReference: {fileID: 0}
    - target: {fileID: 3576335614288922936, guid: 9457180d68ce1b14eb5a9951f25ae8cb,
        type: 3}
      propertyPath: m_LocalPosition.y
      value: 0.5
      objectReference: {fileID: 0}
    - target: {fileID: 3576335614288922936, guid: 9457180d68ce1b14eb5a9951f25ae8cb,
        type: 3}
      propertyPath: m_LocalPosition.z
      value: 16
      objectReference: {fileID: 0}
    - target: {fileID: 3576335614288922936, guid: 9457180d68ce1b14eb5a9951f25ae8cb,
        type: 3}
      propertyPath: m_LocalRotation.x
      value: 0.5606031
      objectReference: {fileID: 0}
    - target: {fileID: 3576335614288922936, guid: 9457180d68ce1b14eb5a9951f25ae8cb,
        type: 3}
      propertyPath: m_LocalRotation.y
      value: 0.1713936
      objectReference: {fileID: 0}
    - target: {fileID: 3576335614288922936, guid: 9457180d68ce1b14eb5a9951f25ae8cb,
        type: 3}
      propertyPath: m_LocalRotation.z
      value: 0.17139359
      objectReference: {fileID: 0}
    - target: {fileID: 3576335614288922936, guid: 9457180d68ce1b14eb5a9951f25ae8cb,
        type: 3}
      propertyPath: m_LocalRotation.w
      value: 0.79181606
      objectReference: {fileID: 0}
    - target: {fileID: 3576335614288922936, guid: 9457180d68ce1b14eb5a9951f25ae8cb,
        type: 3}
      propertyPath: m_RootOrder
      value: 8
      objectReference: {fileID: 0}
    - target: {fileID: 3576335614288922936, guid: 9457180d68ce1b14eb5a9951f25ae8cb,
        type: 3}
      propertyPath: m_LocalEulerAnglesHint.x
      value: 56
      objectReference: {fileID: 0}
    - target: {fileID: 3576335614288922936, guid: 9457180d68ce1b14eb5a9951f25ae8cb,
        type: 3}
      propertyPath: m_LocalEulerAnglesHint.y
      value: 56
      objectReference: {fileID: 0}
    - target: {fileID: 3576335614288922936, guid: 9457180d68ce1b14eb5a9951f25ae8cb,
        type: 3}
      propertyPath: m_LocalEulerAnglesHint.z
      value: 56
      objectReference: {fileID: 0}
    - target: {fileID: 3576335614288922936, guid: 9457180d68ce1b14eb5a9951f25ae8cb,
        type: 3}
      propertyPath: m_LocalScale.y
      value: 0.5000001
      objectReference: {fileID: 0}
    - target: {fileID: 3576335614288922936, guid: 9457180d68ce1b14eb5a9951f25ae8cb,
        type: 3}
      propertyPath: m_LocalScale.z
      value: 0.5000001
      objectReference: {fileID: 0}
    m_RemovedComponents: []
  m_SourcePrefab: {fileID: 100100000, guid: 9457180d68ce1b14eb5a9951f25ae8cb, type: 3}
--- !u!4 &1177308251 stripped
Transform:
  m_CorrespondingSourceObject: {fileID: 3576335614288922936, guid: 9457180d68ce1b14eb5a9951f25ae8cb,
    type: 3}
  m_PrefabInstance: {fileID: 1085934261}
  m_PrefabAsset: {fileID: 0}
--- !u!1 &1179304621
GameObject:
  m_ObjectHideFlags: 0
  m_CorrespondingSourceObject: {fileID: 0}
  m_PrefabInstance: {fileID: 0}
  m_PrefabAsset: {fileID: 0}
  serializedVersion: 6
  m_Component:
  - component: {fileID: 1179304622}
  - component: {fileID: 1179304625}
  - component: {fileID: 1179304624}
  - component: {fileID: 1179304623}
  m_Layer: 0
  m_Name: EastWall
  m_TagString: Untagged
  m_Icon: {fileID: 0}
  m_NavMeshLayer: 0
  m_StaticEditorFlags: 0
  m_IsActive: 1
--- !u!4 &1179304622
Transform:
  m_ObjectHideFlags: 0
  m_CorrespondingSourceObject: {fileID: 0}
  m_PrefabInstance: {fileID: 0}
  m_PrefabAsset: {fileID: 0}
  m_GameObject: {fileID: 1179304621}
  m_LocalRotation: {x: -0, y: -0, z: -0, w: 1}
  m_LocalPosition: {x: 24.75, y: 1, z: 0}
  m_LocalScale: {x: 0.5, y: 2, z: 50}
  m_Children: []
  m_Father: {fileID: 578511369}
  m_RootOrder: 1
  m_LocalEulerAnglesHint: {x: 0, y: 0, z: 0}
--- !u!65 &1179304623
BoxCollider:
  m_ObjectHideFlags: 0
  m_CorrespondingSourceObject: {fileID: 0}
  m_PrefabInstance: {fileID: 0}
  m_PrefabAsset: {fileID: 0}
  m_GameObject: {fileID: 1179304621}
  m_Material: {fileID: 0}
  m_IsTrigger: 0
  m_Enabled: 1
  serializedVersion: 2
  m_Size: {x: 1, y: 1, z: 1}
  m_Center: {x: 0, y: 0, z: 0}
--- !u!23 &1179304624
MeshRenderer:
  m_ObjectHideFlags: 0
  m_CorrespondingSourceObject: {fileID: 0}
  m_PrefabInstance: {fileID: 0}
  m_PrefabAsset: {fileID: 0}
  m_GameObject: {fileID: 1179304621}
  m_Enabled: 1
  m_CastShadows: 1
  m_ReceiveShadows: 1
  m_DynamicOccludee: 1
  m_MotionVectors: 1
  m_LightProbeUsage: 1
  m_ReflectionProbeUsage: 1
  m_RenderingLayerMask: 1
  m_RendererPriority: 0
  m_Materials:
  - {fileID: 10303, guid: 0000000000000000f000000000000000, type: 0}
  m_StaticBatchInfo:
    firstSubMesh: 0
    subMeshCount: 0
  m_StaticBatchRoot: {fileID: 0}
  m_ProbeAnchor: {fileID: 0}
  m_LightProbeVolumeOverride: {fileID: 0}
  m_ScaleInLightmap: 1
  m_PreserveUVs: 0
  m_IgnoreNormalsForChartDetection: 0
  m_ImportantGI: 0
  m_StitchLightmapSeams: 0
  m_SelectedEditorRenderState: 3
  m_MinimumChartSize: 4
  m_AutoUVMaxDistance: 0.5
  m_AutoUVMaxAngle: 89
  m_LightmapParameters: {fileID: 0}
  m_SortingLayerID: 0
  m_SortingLayer: 0
  m_SortingOrder: 0
--- !u!33 &1179304625
MeshFilter:
  m_ObjectHideFlags: 0
  m_CorrespondingSourceObject: {fileID: 0}
  m_PrefabInstance: {fileID: 0}
  m_PrefabAsset: {fileID: 0}
  m_GameObject: {fileID: 1179304621}
  m_Mesh: {fileID: 10202, guid: 0000000000000000e000000000000000, type: 0}
--- !u!4 &1194653665 stripped
Transform:
  m_CorrespondingSourceObject: {fileID: 3576335614288922936, guid: 9457180d68ce1b14eb5a9951f25ae8cb,
    type: 3}
  m_PrefabInstance: {fileID: 2008440426}
  m_PrefabAsset: {fileID: 0}
--- !u!4 &1217117790 stripped
Transform:
  m_CorrespondingSourceObject: {fileID: 3576335614288922936, guid: 9457180d68ce1b14eb5a9951f25ae8cb,
    type: 3}
  m_PrefabInstance: {fileID: 1167663363}
  m_PrefabAsset: {fileID: 0}
--- !u!1001 &1279401208
PrefabInstance:
  m_ObjectHideFlags: 0
  serializedVersion: 2
  m_Modification:
    m_TransformParent: {fileID: 988901801}
    m_Modifications:
    - target: {fileID: 3576335614288922943, guid: 9457180d68ce1b14eb5a9951f25ae8cb,
        type: 3}
      propertyPath: m_Name
      value: PickUp (6)
      objectReference: {fileID: 0}
    - target: {fileID: 3576335614288922936, guid: 9457180d68ce1b14eb5a9951f25ae8cb,
        type: 3}
      propertyPath: m_LocalPosition.x
      value: -10.6
      objectReference: {fileID: 0}
    - target: {fileID: 3576335614288922936, guid: 9457180d68ce1b14eb5a9951f25ae8cb,
        type: 3}
      propertyPath: m_LocalPosition.y
      value: 0.5
      objectReference: {fileID: 0}
    - target: {fileID: 3576335614288922936, guid: 9457180d68ce1b14eb5a9951f25ae8cb,
        type: 3}
      propertyPath: m_LocalPosition.z
      value: 13.9
      objectReference: {fileID: 0}
    - target: {fileID: 3576335614288922936, guid: 9457180d68ce1b14eb5a9951f25ae8cb,
        type: 3}
      propertyPath: m_LocalRotation.x
      value: 0.5606031
      objectReference: {fileID: 0}
    - target: {fileID: 3576335614288922936, guid: 9457180d68ce1b14eb5a9951f25ae8cb,
        type: 3}
      propertyPath: m_LocalRotation.y
      value: 0.1713936
      objectReference: {fileID: 0}
    - target: {fileID: 3576335614288922936, guid: 9457180d68ce1b14eb5a9951f25ae8cb,
        type: 3}
      propertyPath: m_LocalRotation.z
      value: 0.17139359
      objectReference: {fileID: 0}
    - target: {fileID: 3576335614288922936, guid: 9457180d68ce1b14eb5a9951f25ae8cb,
        type: 3}
      propertyPath: m_LocalRotation.w
      value: 0.79181606
      objectReference: {fileID: 0}
    - target: {fileID: 3576335614288922936, guid: 9457180d68ce1b14eb5a9951f25ae8cb,
        type: 3}
      propertyPath: m_RootOrder
      value: 6
      objectReference: {fileID: 0}
    - target: {fileID: 3576335614288922936, guid: 9457180d68ce1b14eb5a9951f25ae8cb,
        type: 3}
      propertyPath: m_LocalEulerAnglesHint.x
      value: 56
      objectReference: {fileID: 0}
    - target: {fileID: 3576335614288922936, guid: 9457180d68ce1b14eb5a9951f25ae8cb,
        type: 3}
      propertyPath: m_LocalEulerAnglesHint.y
      value: 56
      objectReference: {fileID: 0}
    - target: {fileID: 3576335614288922936, guid: 9457180d68ce1b14eb5a9951f25ae8cb,
        type: 3}
      propertyPath: m_LocalEulerAnglesHint.z
      value: 56
      objectReference: {fileID: 0}
    - target: {fileID: 3576335614288922936, guid: 9457180d68ce1b14eb5a9951f25ae8cb,
        type: 3}
      propertyPath: m_LocalScale.y
      value: 0.5000001
      objectReference: {fileID: 0}
    - target: {fileID: 3576335614288922936, guid: 9457180d68ce1b14eb5a9951f25ae8cb,
        type: 3}
      propertyPath: m_LocalScale.z
      value: 0.5000001
      objectReference: {fileID: 0}
    m_RemovedComponents: []
  m_SourcePrefab: {fileID: 100100000, guid: 9457180d68ce1b14eb5a9951f25ae8cb, type: 3}
--- !u!1001 &1381904601
PrefabInstance:
  m_ObjectHideFlags: 0
  serializedVersion: 2
  m_Modification:
    m_TransformParent: {fileID: 988901801}
    m_Modifications:
    - target: {fileID: 3576335614288922943, guid: 9457180d68ce1b14eb5a9951f25ae8cb,
        type: 3}
      propertyPath: m_Name
      value: PickUp (4)
      objectReference: {fileID: 0}
    - target: {fileID: 3576335614288922936, guid: 9457180d68ce1b14eb5a9951f25ae8cb,
        type: 3}
      propertyPath: m_LocalPosition.x
      value: -10.8
      objectReference: {fileID: 0}
    - target: {fileID: 3576335614288922936, guid: 9457180d68ce1b14eb5a9951f25ae8cb,
        type: 3}
      propertyPath: m_LocalPosition.y
      value: 0.5
      objectReference: {fileID: 0}
    - target: {fileID: 3576335614288922936, guid: 9457180d68ce1b14eb5a9951f25ae8cb,
        type: 3}
      propertyPath: m_LocalPosition.z
      value: 7.4
      objectReference: {fileID: 0}
    - target: {fileID: 3576335614288922936, guid: 9457180d68ce1b14eb5a9951f25ae8cb,
        type: 3}
      propertyPath: m_LocalRotation.x
      value: 0.5606031
      objectReference: {fileID: 0}
    - target: {fileID: 3576335614288922936, guid: 9457180d68ce1b14eb5a9951f25ae8cb,
        type: 3}
      propertyPath: m_LocalRotation.y
      value: 0.1713936
      objectReference: {fileID: 0}
    - target: {fileID: 3576335614288922936, guid: 9457180d68ce1b14eb5a9951f25ae8cb,
        type: 3}
      propertyPath: m_LocalRotation.z
      value: 0.17139359
      objectReference: {fileID: 0}
    - target: {fileID: 3576335614288922936, guid: 9457180d68ce1b14eb5a9951f25ae8cb,
        type: 3}
      propertyPath: m_LocalRotation.w
      value: 0.79181606
      objectReference: {fileID: 0}
    - target: {fileID: 3576335614288922936, guid: 9457180d68ce1b14eb5a9951f25ae8cb,
        type: 3}
      propertyPath: m_RootOrder
      value: 4
      objectReference: {fileID: 0}
    - target: {fileID: 3576335614288922936, guid: 9457180d68ce1b14eb5a9951f25ae8cb,
        type: 3}
      propertyPath: m_LocalEulerAnglesHint.x
      value: 56
      objectReference: {fileID: 0}
    - target: {fileID: 3576335614288922936, guid: 9457180d68ce1b14eb5a9951f25ae8cb,
        type: 3}
      propertyPath: m_LocalEulerAnglesHint.y
      value: 56
      objectReference: {fileID: 0}
    - target: {fileID: 3576335614288922936, guid: 9457180d68ce1b14eb5a9951f25ae8cb,
        type: 3}
      propertyPath: m_LocalEulerAnglesHint.z
      value: 56
      objectReference: {fileID: 0}
    - target: {fileID: 3576335614288922936, guid: 9457180d68ce1b14eb5a9951f25ae8cb,
        type: 3}
      propertyPath: m_LocalScale.y
      value: 0.5000001
      objectReference: {fileID: 0}
    - target: {fileID: 3576335614288922936, guid: 9457180d68ce1b14eb5a9951f25ae8cb,
        type: 3}
      propertyPath: m_LocalScale.z
      value: 0.5000001
      objectReference: {fileID: 0}
    m_RemovedComponents: []
  m_SourcePrefab: {fileID: 100100000, guid: 9457180d68ce1b14eb5a9951f25ae8cb, type: 3}
--- !u!4 &1464747887 stripped
Transform:
  m_CorrespondingSourceObject: {fileID: 3576335614288922936, guid: 9457180d68ce1b14eb5a9951f25ae8cb,
    type: 3}
  m_PrefabInstance: {fileID: 1013734917}
  m_PrefabAsset: {fileID: 0}
--- !u!1 &1481186751
GameObject:
  m_ObjectHideFlags: 0
  m_CorrespondingSourceObject: {fileID: 0}
  m_PrefabInstance: {fileID: 0}
  m_PrefabAsset: {fileID: 0}
  serializedVersion: 6
  m_Component:
  - component: {fileID: 1481186755}
  - component: {fileID: 1481186754}
  - component: {fileID: 1481186753}
  - component: {fileID: 1481186752}
  m_Layer: 5
  m_Name: Canvas
  m_TagString: Untagged
  m_Icon: {fileID: 0}
  m_NavMeshLayer: 0
  m_StaticEditorFlags: 0
  m_IsActive: 1
--- !u!114 &1481186752
MonoBehaviour:
  m_ObjectHideFlags: 0
  m_CorrespondingSourceObject: {fileID: 0}
  m_PrefabInstance: {fileID: 0}
  m_PrefabAsset: {fileID: 0}
  m_GameObject: {fileID: 1481186751}
  m_Enabled: 1
  m_EditorHideFlags: 0
  m_Script: {fileID: 1301386320, guid: f70555f144d8491a825f0804e09c671c, type: 3}
  m_Name: 
  m_EditorClassIdentifier: 
  m_IgnoreReversedGraphics: 1
  m_BlockingObjects: 0
  m_BlockingMask:
    serializedVersion: 2
    m_Bits: 4294967295
--- !u!114 &1481186753
MonoBehaviour:
  m_ObjectHideFlags: 0
  m_CorrespondingSourceObject: {fileID: 0}
  m_PrefabInstance: {fileID: 0}
  m_PrefabAsset: {fileID: 0}
  m_GameObject: {fileID: 1481186751}
  m_Enabled: 1
  m_EditorHideFlags: 0
  m_Script: {fileID: 1980459831, guid: f70555f144d8491a825f0804e09c671c, type: 3}
  m_Name: 
  m_EditorClassIdentifier: 
  m_UiScaleMode: 0
  m_ReferencePixelsPerUnit: 100
  m_ScaleFactor: 1
  m_ReferenceResolution: {x: 800, y: 600}
  m_ScreenMatchMode: 0
  m_MatchWidthOrHeight: 0
  m_PhysicalUnit: 3
  m_FallbackScreenDPI: 96
  m_DefaultSpriteDPI: 96
  m_DynamicPixelsPerUnit: 1
--- !u!223 &1481186754
Canvas:
  m_ObjectHideFlags: 0
  m_CorrespondingSourceObject: {fileID: 0}
  m_PrefabInstance: {fileID: 0}
  m_PrefabAsset: {fileID: 0}
  m_GameObject: {fileID: 1481186751}
  m_Enabled: 1
  serializedVersion: 3
  m_RenderMode: 0
  m_Camera: {fileID: 0}
  m_PlaneDistance: 100
  m_PixelPerfect: 0
  m_ReceivesEvents: 1
  m_OverrideSorting: 0
  m_OverridePixelPerfect: 0
  m_SortingBucketNormalizedSize: 0
  m_AdditionalShaderChannelsFlag: 0
  m_SortingLayerID: 0
  m_SortingOrder: 0
  m_TargetDisplay: 0
--- !u!224 &1481186755
RectTransform:
  m_ObjectHideFlags: 0
  m_CorrespondingSourceObject: {fileID: 0}
  m_PrefabInstance: {fileID: 0}
  m_PrefabAsset: {fileID: 0}
  m_GameObject: {fileID: 1481186751}
  m_LocalRotation: {x: 0, y: 0, z: 0, w: 1}
  m_LocalPosition: {x: 0, y: 0, z: 0}
  m_LocalScale: {x: 0, y: 0, z: 0}
  m_Children:
  - {fileID: 1587734758}
  - {fileID: 2068362197}
  m_Father: {fileID: 0}
  m_RootOrder: 6
  m_LocalEulerAnglesHint: {x: 0, y: 0, z: 0}
  m_AnchorMin: {x: 0, y: 0}
  m_AnchorMax: {x: 0, y: 0}
  m_AnchoredPosition: {x: 0, y: 0}
  m_SizeDelta: {x: 0, y: 0}
  m_Pivot: {x: 0, y: 0}
--- !u!1001 &1505671189
PrefabInstance:
  m_ObjectHideFlags: 0
  serializedVersion: 2
  m_Modification:
    m_TransformParent: {fileID: 988901801}
    m_Modifications:
    - target: {fileID: 3576335614288922943, guid: 9457180d68ce1b14eb5a9951f25ae8cb,
        type: 3}
      propertyPath: m_Name
      value: PickUp (14)
      objectReference: {fileID: 0}
    - target: {fileID: 3576335614288922936, guid: 9457180d68ce1b14eb5a9951f25ae8cb,
        type: 3}
      propertyPath: m_LocalPosition.x
      value: 6.1
      objectReference: {fileID: 0}
    - target: {fileID: 3576335614288922936, guid: 9457180d68ce1b14eb5a9951f25ae8cb,
        type: 3}
      propertyPath: m_LocalPosition.y
      value: 0.5
      objectReference: {fileID: 0}
    - target: {fileID: 3576335614288922936, guid: 9457180d68ce1b14eb5a9951f25ae8cb,
        type: 3}
      propertyPath: m_LocalPosition.z
      value: 5.2
      objectReference: {fileID: 0}
    - target: {fileID: 3576335614288922936, guid: 9457180d68ce1b14eb5a9951f25ae8cb,
        type: 3}
      propertyPath: m_LocalRotation.x
      value: 0.5606031
      objectReference: {fileID: 0}
    - target: {fileID: 3576335614288922936, guid: 9457180d68ce1b14eb5a9951f25ae8cb,
        type: 3}
      propertyPath: m_LocalRotation.y
      value: 0.1713936
      objectReference: {fileID: 0}
    - target: {fileID: 3576335614288922936, guid: 9457180d68ce1b14eb5a9951f25ae8cb,
        type: 3}
      propertyPath: m_LocalRotation.z
      value: 0.17139359
      objectReference: {fileID: 0}
    - target: {fileID: 3576335614288922936, guid: 9457180d68ce1b14eb5a9951f25ae8cb,
        type: 3}
      propertyPath: m_LocalRotation.w
      value: 0.79181606
      objectReference: {fileID: 0}
    - target: {fileID: 3576335614288922936, guid: 9457180d68ce1b14eb5a9951f25ae8cb,
        type: 3}
      propertyPath: m_RootOrder
      value: 14
      objectReference: {fileID: 0}
    - target: {fileID: 3576335614288922936, guid: 9457180d68ce1b14eb5a9951f25ae8cb,
        type: 3}
      propertyPath: m_LocalEulerAnglesHint.x
      value: 56
      objectReference: {fileID: 0}
    - target: {fileID: 3576335614288922936, guid: 9457180d68ce1b14eb5a9951f25ae8cb,
        type: 3}
      propertyPath: m_LocalEulerAnglesHint.y
      value: 56
      objectReference: {fileID: 0}
    - target: {fileID: 3576335614288922936, guid: 9457180d68ce1b14eb5a9951f25ae8cb,
        type: 3}
      propertyPath: m_LocalEulerAnglesHint.z
      value: 56
      objectReference: {fileID: 0}
    - target: {fileID: 3576335614288922936, guid: 9457180d68ce1b14eb5a9951f25ae8cb,
        type: 3}
      propertyPath: m_LocalScale.y
      value: 0.5000001
      objectReference: {fileID: 0}
    - target: {fileID: 3576335614288922936, guid: 9457180d68ce1b14eb5a9951f25ae8cb,
        type: 3}
      propertyPath: m_LocalScale.z
      value: 0.5000001
      objectReference: {fileID: 0}
    m_RemovedComponents: []
  m_SourcePrefab: {fileID: 100100000, guid: 9457180d68ce1b14eb5a9951f25ae8cb, type: 3}
--- !u!1 &1563018812
GameObject:
  m_ObjectHideFlags: 0
  m_CorrespondingSourceObject: {fileID: 0}
  m_PrefabInstance: {fileID: 0}
  m_PrefabAsset: {fileID: 0}
  serializedVersion: 6
  m_Component:
  - component: {fileID: 1563018815}
  - component: {fileID: 1563018814}
  - component: {fileID: 1563018813}
  m_Layer: 0
  m_Name: EventSystem
  m_TagString: Untagged
  m_Icon: {fileID: 0}
  m_NavMeshLayer: 0
  m_StaticEditorFlags: 0
  m_IsActive: 1
--- !u!114 &1563018813
MonoBehaviour:
  m_ObjectHideFlags: 0
  m_CorrespondingSourceObject: {fileID: 0}
  m_PrefabInstance: {fileID: 0}
  m_PrefabAsset: {fileID: 0}
  m_GameObject: {fileID: 1563018812}
  m_Enabled: 1
  m_EditorHideFlags: 0
  m_Script: {fileID: 1077351063, guid: f70555f144d8491a825f0804e09c671c, type: 3}
  m_Name: 
  m_EditorClassIdentifier: 
  m_HorizontalAxis: Horizontal
  m_VerticalAxis: Vertical
  m_SubmitButton: Submit
  m_CancelButton: Cancel
  m_InputActionsPerSecond: 10
  m_RepeatDelay: 0.5
  m_ForceModuleActive: 0
--- !u!114 &1563018814
MonoBehaviour:
  m_ObjectHideFlags: 0
  m_CorrespondingSourceObject: {fileID: 0}
  m_PrefabInstance: {fileID: 0}
  m_PrefabAsset: {fileID: 0}
  m_GameObject: {fileID: 1563018812}
  m_Enabled: 1
  m_EditorHideFlags: 0
  m_Script: {fileID: -619905303, guid: f70555f144d8491a825f0804e09c671c, type: 3}
  m_Name: 
  m_EditorClassIdentifier: 
  m_FirstSelected: {fileID: 0}
  m_sendNavigationEvents: 1
  m_DragThreshold: 10
--- !u!4 &1563018815
Transform:
  m_ObjectHideFlags: 0
  m_CorrespondingSourceObject: {fileID: 0}
  m_PrefabInstance: {fileID: 0}
  m_PrefabAsset: {fileID: 0}
  m_GameObject: {fileID: 1563018812}
  m_LocalRotation: {x: 0, y: 0, z: 0, w: 1}
  m_LocalPosition: {x: 0, y: 0, z: 0}
  m_LocalScale: {x: 1, y: 1, z: 1}
  m_Children: []
  m_Father: {fileID: 0}
  m_RootOrder: 7
  m_LocalEulerAnglesHint: {x: 0, y: 0, z: 0}
--- !u!1 &1587734757
GameObject:
  m_ObjectHideFlags: 0
  m_CorrespondingSourceObject: {fileID: 0}
  m_PrefabInstance: {fileID: 0}
  m_PrefabAsset: {fileID: 0}
  serializedVersion: 6
  m_Component:
  - component: {fileID: 1587734758}
  - component: {fileID: 1587734760}
  - component: {fileID: 1587734759}
  m_Layer: 5
  m_Name: CountText
  m_TagString: Untagged
  m_Icon: {fileID: 0}
  m_NavMeshLayer: 0
  m_StaticEditorFlags: 0
  m_IsActive: 1
--- !u!224 &1587734758
RectTransform:
  m_ObjectHideFlags: 0
  m_CorrespondingSourceObject: {fileID: 0}
  m_PrefabInstance: {fileID: 0}
  m_PrefabAsset: {fileID: 0}
  m_GameObject: {fileID: 1587734757}
  m_LocalRotation: {x: 0, y: 0, z: 0, w: 1}
  m_LocalPosition: {x: 0, y: 0, z: 0}
  m_LocalScale: {x: 1, y: 1, z: 1}
  m_Children: []
  m_Father: {fileID: 1481186755}
  m_RootOrder: 0
  m_LocalEulerAnglesHint: {x: 0, y: 0, z: 0}
  m_AnchorMin: {x: 0, y: 1}
  m_AnchorMax: {x: 0, y: 1}
  m_AnchoredPosition: {x: 220, y: -144.5}
  m_SizeDelta: {x: 150, y: 41}
  m_Pivot: {x: 0.5, y: 0.5}
--- !u!114 &1587734759
MonoBehaviour:
  m_ObjectHideFlags: 0
  m_CorrespondingSourceObject: {fileID: 0}
  m_PrefabInstance: {fileID: 0}
  m_PrefabAsset: {fileID: 0}
  m_GameObject: {fileID: 1587734757}
  m_Enabled: 1
  m_EditorHideFlags: 0
  m_Script: {fileID: 708705254, guid: f70555f144d8491a825f0804e09c671c, type: 3}
  m_Name: 
  m_EditorClassIdentifier: 
  m_Material: {fileID: 0}
  m_Color: {r: 1, g: 0.9795611, b: 0, a: 1}
  m_RaycastTarget: 1
  m_OnCullStateChanged:
    m_PersistentCalls:
      m_Calls: []
    m_TypeName: UnityEngine.UI.MaskableGraphic+CullStateChangedEvent, UnityEngine.UI,
      Version=1.0.0.0, Culture=neutral, PublicKeyToken=null
  m_FontData:
    m_Font: {fileID: 10102, guid: 0000000000000000e000000000000000, type: 0}
    m_FontSize: 14
    m_FontStyle: 0
    m_BestFit: 0
    m_MinSize: 10
    m_MaxSize: 40
    m_Alignment: 0
    m_AlignByGeometry: 0
    m_RichText: 1
    m_HorizontalOverflow: 0
    m_VerticalOverflow: 0
    m_LineSpacing: 1
  m_Text: 'Count Text

'
--- !u!222 &1587734760
CanvasRenderer:
  m_ObjectHideFlags: 0
  m_CorrespondingSourceObject: {fileID: 0}
  m_PrefabInstance: {fileID: 0}
  m_PrefabAsset: {fileID: 0}
  m_GameObject: {fileID: 1587734757}
  m_CullTransparentMesh: 0
--- !u!1001 &1669037790
PrefabInstance:
  m_ObjectHideFlags: 0
  serializedVersion: 2
  m_Modification:
    m_TransformParent: {fileID: 988901801}
    m_Modifications:
    - target: {fileID: 3576335614288922943, guid: 9457180d68ce1b14eb5a9951f25ae8cb,
        type: 3}
      propertyPath: m_Name
      value: PickUp (2)
      objectReference: {fileID: 0}
    - target: {fileID: 3576335614288922936, guid: 9457180d68ce1b14eb5a9951f25ae8cb,
        type: 3}
      propertyPath: m_LocalPosition.x
      value: -7.5
      objectReference: {fileID: 0}
    - target: {fileID: 3576335614288922936, guid: 9457180d68ce1b14eb5a9951f25ae8cb,
        type: 3}
      propertyPath: m_LocalPosition.y
      value: 0.5
      objectReference: {fileID: 0}
    - target: {fileID: 3576335614288922936, guid: 9457180d68ce1b14eb5a9951f25ae8cb,
        type: 3}
      propertyPath: m_LocalPosition.z
      value: 1.8
      objectReference: {fileID: 0}
    - target: {fileID: 3576335614288922936, guid: 9457180d68ce1b14eb5a9951f25ae8cb,
        type: 3}
      propertyPath: m_LocalRotation.x
      value: 0.5606031
      objectReference: {fileID: 0}
    - target: {fileID: 3576335614288922936, guid: 9457180d68ce1b14eb5a9951f25ae8cb,
        type: 3}
      propertyPath: m_LocalRotation.y
      value: 0.1713936
      objectReference: {fileID: 0}
    - target: {fileID: 3576335614288922936, guid: 9457180d68ce1b14eb5a9951f25ae8cb,
        type: 3}
      propertyPath: m_LocalRotation.z
      value: 0.17139359
      objectReference: {fileID: 0}
    - target: {fileID: 3576335614288922936, guid: 9457180d68ce1b14eb5a9951f25ae8cb,
        type: 3}
      propertyPath: m_LocalRotation.w
      value: 0.79181606
      objectReference: {fileID: 0}
    - target: {fileID: 3576335614288922936, guid: 9457180d68ce1b14eb5a9951f25ae8cb,
        type: 3}
      propertyPath: m_RootOrder
      value: 2
      objectReference: {fileID: 0}
    - target: {fileID: 3576335614288922936, guid: 9457180d68ce1b14eb5a9951f25ae8cb,
        type: 3}
      propertyPath: m_LocalEulerAnglesHint.x
      value: 56
      objectReference: {fileID: 0}
    - target: {fileID: 3576335614288922936, guid: 9457180d68ce1b14eb5a9951f25ae8cb,
        type: 3}
      propertyPath: m_LocalEulerAnglesHint.y
      value: 56
      objectReference: {fileID: 0}
    - target: {fileID: 3576335614288922936, guid: 9457180d68ce1b14eb5a9951f25ae8cb,
        type: 3}
      propertyPath: m_LocalEulerAnglesHint.z
      value: 56
      objectReference: {fileID: 0}
    - target: {fileID: 3576335614288922936, guid: 9457180d68ce1b14eb5a9951f25ae8cb,
        type: 3}
      propertyPath: m_LocalScale.y
      value: 0.5000001
      objectReference: {fileID: 0}
    - target: {fileID: 3576335614288922936, guid: 9457180d68ce1b14eb5a9951f25ae8cb,
        type: 3}
      propertyPath: m_LocalScale.z
      value: 0.5000001
      objectReference: {fileID: 0}
    m_RemovedComponents: []
  m_SourcePrefab: {fileID: 100100000, guid: 9457180d68ce1b14eb5a9951f25ae8cb, type: 3}
--- !u!4 &1751531490 stripped
Transform:
  m_CorrespondingSourceObject: {fileID: 3576335614288922936, guid: 9457180d68ce1b14eb5a9951f25ae8cb,
    type: 3}
  m_PrefabInstance: {fileID: 729899346}
  m_PrefabAsset: {fileID: 0}
--- !u!1001 &1830221934
PrefabInstance:
  m_ObjectHideFlags: 0
  serializedVersion: 2
  m_Modification:
    m_TransformParent: {fileID: 988901801}
    m_Modifications:
    - target: {fileID: 3576335614288922943, guid: 9457180d68ce1b14eb5a9951f25ae8cb,
        type: 3}
      propertyPath: m_Name
      value: PickUp (13)
      objectReference: {fileID: 0}
    - target: {fileID: 3576335614288922936, guid: 9457180d68ce1b14eb5a9951f25ae8cb,
        type: 3}
      propertyPath: m_LocalPosition.x
      value: 6.9
      objectReference: {fileID: 0}
    - target: {fileID: 3576335614288922936, guid: 9457180d68ce1b14eb5a9951f25ae8cb,
        type: 3}
      propertyPath: m_LocalPosition.y
      value: 0.5
      objectReference: {fileID: 0}
    - target: {fileID: 3576335614288922936, guid: 9457180d68ce1b14eb5a9951f25ae8cb,
        type: 3}
      propertyPath: m_LocalPosition.z
      value: 8.2
      objectReference: {fileID: 0}
    - target: {fileID: 3576335614288922936, guid: 9457180d68ce1b14eb5a9951f25ae8cb,
        type: 3}
      propertyPath: m_LocalRotation.x
      value: 0.5606031
      objectReference: {fileID: 0}
    - target: {fileID: 3576335614288922936, guid: 9457180d68ce1b14eb5a9951f25ae8cb,
        type: 3}
      propertyPath: m_LocalRotation.y
      value: 0.1713936
      objectReference: {fileID: 0}
    - target: {fileID: 3576335614288922936, guid: 9457180d68ce1b14eb5a9951f25ae8cb,
        type: 3}
      propertyPath: m_LocalRotation.z
      value: 0.17139359
      objectReference: {fileID: 0}
    - target: {fileID: 3576335614288922936, guid: 9457180d68ce1b14eb5a9951f25ae8cb,
        type: 3}
      propertyPath: m_LocalRotation.w
      value: 0.79181606
      objectReference: {fileID: 0}
    - target: {fileID: 3576335614288922936, guid: 9457180d68ce1b14eb5a9951f25ae8cb,
        type: 3}
      propertyPath: m_RootOrder
      value: 13
      objectReference: {fileID: 0}
    - target: {fileID: 3576335614288922936, guid: 9457180d68ce1b14eb5a9951f25ae8cb,
        type: 3}
      propertyPath: m_LocalEulerAnglesHint.x
      value: 56
      objectReference: {fileID: 0}
    - target: {fileID: 3576335614288922936, guid: 9457180d68ce1b14eb5a9951f25ae8cb,
        type: 3}
      propertyPath: m_LocalEulerAnglesHint.y
      value: 56
      objectReference: {fileID: 0}
    - target: {fileID: 3576335614288922936, guid: 9457180d68ce1b14eb5a9951f25ae8cb,
        type: 3}
      propertyPath: m_LocalEulerAnglesHint.z
      value: 56
      objectReference: {fileID: 0}
    - target: {fileID: 3576335614288922936, guid: 9457180d68ce1b14eb5a9951f25ae8cb,
        type: 3}
      propertyPath: m_LocalScale.y
      value: 0.5000001
      objectReference: {fileID: 0}
    - target: {fileID: 3576335614288922936, guid: 9457180d68ce1b14eb5a9951f25ae8cb,
        type: 3}
      propertyPath: m_LocalScale.z
      value: 0.5000001
      objectReference: {fileID: 0}
    m_RemovedComponents: []
  m_SourcePrefab: {fileID: 100100000, guid: 9457180d68ce1b14eb5a9951f25ae8cb, type: 3}
--- !u!4 &1874178603 stripped
Transform:
  m_CorrespondingSourceObject: {fileID: 3576335614288922936, guid: 9457180d68ce1b14eb5a9951f25ae8cb,
    type: 3}
  m_PrefabInstance: {fileID: 1830221934}
  m_PrefabAsset: {fileID: 0}
--- !u!4 &1900366289 stripped
Transform:
  m_CorrespondingSourceObject: {fileID: 3576335614288922936, guid: 9457180d68ce1b14eb5a9951f25ae8cb,
    type: 3}
  m_PrefabInstance: {fileID: 644500102}
  m_PrefabAsset: {fileID: 0}
--- !u!1001 &1959968332
PrefabInstance:
  m_ObjectHideFlags: 0
  serializedVersion: 2
  m_Modification:
    m_TransformParent: {fileID: 988901801}
    m_Modifications:
    - target: {fileID: 3576335614288922943, guid: 9457180d68ce1b14eb5a9951f25ae8cb,
        type: 3}
      propertyPath: m_Name
      value: PickUp (3)
      objectReference: {fileID: 0}
    - target: {fileID: 3576335614288922936, guid: 9457180d68ce1b14eb5a9951f25ae8cb,
        type: 3}
      propertyPath: m_LocalPosition.x
      value: -9.8
      objectReference: {fileID: 0}
    - target: {fileID: 3576335614288922936, guid: 9457180d68ce1b14eb5a9951f25ae8cb,
        type: 3}
      propertyPath: m_LocalPosition.y
      value: 0.5
      objectReference: {fileID: 0}
    - target: {fileID: 3576335614288922936, guid: 9457180d68ce1b14eb5a9951f25ae8cb,
        type: 3}
      propertyPath: m_LocalPosition.z
      value: 4.5
      objectReference: {fileID: 0}
    - target: {fileID: 3576335614288922936, guid: 9457180d68ce1b14eb5a9951f25ae8cb,
        type: 3}
      propertyPath: m_LocalRotation.x
      value: 0.5606031
      objectReference: {fileID: 0}
    - target: {fileID: 3576335614288922936, guid: 9457180d68ce1b14eb5a9951f25ae8cb,
        type: 3}
      propertyPath: m_LocalRotation.y
      value: 0.1713936
      objectReference: {fileID: 0}
    - target: {fileID: 3576335614288922936, guid: 9457180d68ce1b14eb5a9951f25ae8cb,
        type: 3}
      propertyPath: m_LocalRotation.z
      value: 0.17139359
      objectReference: {fileID: 0}
    - target: {fileID: 3576335614288922936, guid: 9457180d68ce1b14eb5a9951f25ae8cb,
        type: 3}
      propertyPath: m_LocalRotation.w
      value: 0.79181606
      objectReference: {fileID: 0}
    - target: {fileID: 3576335614288922936, guid: 9457180d68ce1b14eb5a9951f25ae8cb,
        type: 3}
      propertyPath: m_RootOrder
      value: 3
      objectReference: {fileID: 0}
    - target: {fileID: 3576335614288922936, guid: 9457180d68ce1b14eb5a9951f25ae8cb,
        type: 3}
      propertyPath: m_LocalEulerAnglesHint.x
      value: 56
      objectReference: {fileID: 0}
    - target: {fileID: 3576335614288922936, guid: 9457180d68ce1b14eb5a9951f25ae8cb,
        type: 3}
      propertyPath: m_LocalEulerAnglesHint.y
      value: 56
      objectReference: {fileID: 0}
    - target: {fileID: 3576335614288922936, guid: 9457180d68ce1b14eb5a9951f25ae8cb,
        type: 3}
      propertyPath: m_LocalEulerAnglesHint.z
      value: 56
      objectReference: {fileID: 0}
    - target: {fileID: 3576335614288922936, guid: 9457180d68ce1b14eb5a9951f25ae8cb,
        type: 3}
      propertyPath: m_LocalScale.y
      value: 0.5000001
      objectReference: {fileID: 0}
    - target: {fileID: 3576335614288922936, guid: 9457180d68ce1b14eb5a9951f25ae8cb,
        type: 3}
      propertyPath: m_LocalScale.z
      value: 0.5000001
      objectReference: {fileID: 0}
    - target: {fileID: 3576335614288922938, guid: 9457180d68ce1b14eb5a9951f25ae8cb,
        type: 3}
      propertyPath: m_Enabled
      value: 1
      objectReference: {fileID: 0}
    m_RemovedComponents: []
  m_SourcePrefab: {fileID: 100100000, guid: 9457180d68ce1b14eb5a9951f25ae8cb, type: 3}
--- !u!1001 &2008440426
PrefabInstance:
  m_ObjectHideFlags: 0
  serializedVersion: 2
  m_Modification:
    m_TransformParent: {fileID: 988901801}
    m_Modifications:
    - target: {fileID: 3576335614288922943, guid: 9457180d68ce1b14eb5a9951f25ae8cb,
        type: 3}
      propertyPath: m_Name
      value: PickUp (11)
      objectReference: {fileID: 0}
    - target: {fileID: 3576335614288922936, guid: 9457180d68ce1b14eb5a9951f25ae8cb,
        type: 3}
      propertyPath: m_LocalPosition.x
      value: 5.4
      objectReference: {fileID: 0}
    - target: {fileID: 3576335614288922936, guid: 9457180d68ce1b14eb5a9951f25ae8cb,
        type: 3}
      propertyPath: m_LocalPosition.y
      value: 0.5
      objectReference: {fileID: 0}
    - target: {fileID: 3576335614288922936, guid: 9457180d68ce1b14eb5a9951f25ae8cb,
        type: 3}
      propertyPath: m_LocalPosition.z
      value: 14.2
      objectReference: {fileID: 0}
    - target: {fileID: 3576335614288922936, guid: 9457180d68ce1b14eb5a9951f25ae8cb,
        type: 3}
      propertyPath: m_LocalRotation.x
      value: 0.5606031
      objectReference: {fileID: 0}
    - target: {fileID: 3576335614288922936, guid: 9457180d68ce1b14eb5a9951f25ae8cb,
        type: 3}
      propertyPath: m_LocalRotation.y
      value: 0.1713936
      objectReference: {fileID: 0}
    - target: {fileID: 3576335614288922936, guid: 9457180d68ce1b14eb5a9951f25ae8cb,
        type: 3}
      propertyPath: m_LocalRotation.z
      value: 0.17139359
      objectReference: {fileID: 0}
    - target: {fileID: 3576335614288922936, guid: 9457180d68ce1b14eb5a9951f25ae8cb,
        type: 3}
      propertyPath: m_LocalRotation.w
      value: 0.79181606
      objectReference: {fileID: 0}
    - target: {fileID: 3576335614288922936, guid: 9457180d68ce1b14eb5a9951f25ae8cb,
        type: 3}
      propertyPath: m_RootOrder
      value: 11
      objectReference: {fileID: 0}
    - target: {fileID: 3576335614288922936, guid: 9457180d68ce1b14eb5a9951f25ae8cb,
        type: 3}
      propertyPath: m_LocalEulerAnglesHint.x
      value: 56
      objectReference: {fileID: 0}
    - target: {fileID: 3576335614288922936, guid: 9457180d68ce1b14eb5a9951f25ae8cb,
        type: 3}
      propertyPath: m_LocalEulerAnglesHint.y
      value: 56
      objectReference: {fileID: 0}
    - target: {fileID: 3576335614288922936, guid: 9457180d68ce1b14eb5a9951f25ae8cb,
        type: 3}
      propertyPath: m_LocalEulerAnglesHint.z
      value: 56
      objectReference: {fileID: 0}
    - target: {fileID: 3576335614288922936, guid: 9457180d68ce1b14eb5a9951f25ae8cb,
        type: 3}
      propertyPath: m_LocalScale.y
      value: 0.5000001
      objectReference: {fileID: 0}
    - target: {fileID: 3576335614288922936, guid: 9457180d68ce1b14eb5a9951f25ae8cb,
        type: 3}
      propertyPath: m_LocalScale.z
      value: 0.5000001
      objectReference: {fileID: 0}
    m_RemovedComponents: []
  m_SourcePrefab: {fileID: 100100000, guid: 9457180d68ce1b14eb5a9951f25ae8cb, type: 3}
--- !u!1 &2068362196
GameObject:
  m_ObjectHideFlags: 0
  m_CorrespondingSourceObject: {fileID: 0}
  m_PrefabInstance: {fileID: 0}
  m_PrefabAsset: {fileID: 0}
  serializedVersion: 6
  m_Component:
  - component: {fileID: 2068362197}
  - component: {fileID: 2068362199}
  - component: {fileID: 2068362198}
  m_Layer: 5
  m_Name: WinText
  m_TagString: Untagged
  m_Icon: {fileID: 0}
  m_NavMeshLayer: 0
  m_StaticEditorFlags: 0
  m_IsActive: 1
--- !u!224 &2068362197
RectTransform:
  m_ObjectHideFlags: 0
  m_CorrespondingSourceObject: {fileID: 0}
  m_PrefabInstance: {fileID: 0}
  m_PrefabAsset: {fileID: 0}
  m_GameObject: {fileID: 2068362196}
  m_LocalRotation: {x: 0, y: 0, z: 0, w: 1}
  m_LocalPosition: {x: 0, y: 0, z: 0}
  m_LocalScale: {x: 1, y: 1, z: 1}
  m_Children: []
  m_Father: {fileID: 1481186755}
  m_RootOrder: 1
  m_LocalEulerAnglesHint: {x: 0, y: 0, z: 0}
  m_AnchorMin: {x: 0, y: 0.5}
  m_AnchorMax: {x: 0, y: 0.5}
  m_AnchoredPosition: {x: 430, y: 150}
  m_SizeDelta: {x: 150, y: 30}
  m_Pivot: {x: 0.5, y: 0.5}
--- !u!114 &2068362198
MonoBehaviour:
  m_ObjectHideFlags: 0
  m_CorrespondingSourceObject: {fileID: 0}
  m_PrefabInstance: {fileID: 0}
  m_PrefabAsset: {fileID: 0}
  m_GameObject: {fileID: 2068362196}
  m_Enabled: 1
  m_EditorHideFlags: 0
  m_Script: {fileID: 708705254, guid: f70555f144d8491a825f0804e09c671c, type: 3}
  m_Name: 
  m_EditorClassIdentifier: 
  m_Material: {fileID: 0}
  m_Color: {r: 0.9137255, g: 0.8871181, b: 0.11764703, a: 1}
  m_RaycastTarget: 1
  m_OnCullStateChanged:
    m_PersistentCalls:
      m_Calls: []
    m_TypeName: UnityEngine.UI.MaskableGraphic+CullStateChangedEvent, UnityEngine.UI,
      Version=1.0.0.0, Culture=neutral, PublicKeyToken=null
  m_FontData:
    m_Font: {fileID: 10102, guid: 0000000000000000e000000000000000, type: 0}
    m_FontSize: 25
    m_FontStyle: 0
    m_BestFit: 0
    m_MinSize: 0
    m_MaxSize: 300
    m_Alignment: 4
    m_AlignByGeometry: 0
    m_RichText: 1
    m_HorizontalOverflow: 0
    m_VerticalOverflow: 0
    m_LineSpacing: 1
  m_Text: You win
--- !u!222 &2068362199
CanvasRenderer:
  m_ObjectHideFlags: 0
  m_CorrespondingSourceObject: {fileID: 0}
  m_PrefabInstance: {fileID: 0}
  m_PrefabAsset: {fileID: 0}
  m_GameObject: {fileID: 2068362196}
  m_CullTransparentMesh: 0
--- !u!1 &2076078675
GameObject:
  m_ObjectHideFlags: 0
  m_CorrespondingSourceObject: {fileID: 0}
  m_PrefabInstance: {fileID: 0}
  m_PrefabAsset: {fileID: 0}
  serializedVersion: 6
  m_Component:
  - component: {fileID: 2076078676}
  - component: {fileID: 2076078679}
  - component: {fileID: 2076078678}
  - component: {fileID: 2076078677}
  m_Layer: 0
  m_Name: SouthWall
  m_TagString: Untagged
  m_Icon: {fileID: 0}
  m_NavMeshLayer: 0
  m_StaticEditorFlags: 0
  m_IsActive: 1
--- !u!4 &2076078676
Transform:
  m_ObjectHideFlags: 0
  m_CorrespondingSourceObject: {fileID: 0}
  m_PrefabInstance: {fileID: 0}
  m_PrefabAsset: {fileID: 0}
  m_GameObject: {fileID: 2076078675}
  m_LocalRotation: {x: -0, y: -0.7071068, z: -0, w: 0.7071068}
  m_LocalPosition: {x: 0, y: 1, z: -24.75}
  m_LocalScale: {x: 0.50000024, y: 2, z: 50.00005}
  m_Children: []
  m_Father: {fileID: 578511369}
  m_RootOrder: 3
  m_LocalEulerAnglesHint: {x: 0, y: -90, z: 0}
--- !u!65 &2076078677
BoxCollider:
  m_ObjectHideFlags: 0
  m_CorrespondingSourceObject: {fileID: 0}
  m_PrefabInstance: {fileID: 0}
  m_PrefabAsset: {fileID: 0}
  m_GameObject: {fileID: 2076078675}
  m_Material: {fileID: 0}
  m_IsTrigger: 0
  m_Enabled: 1
  serializedVersion: 2
  m_Size: {x: 1, y: 1, z: 1}
  m_Center: {x: 0, y: 0, z: 0}
--- !u!23 &2076078678
MeshRenderer:
  m_ObjectHideFlags: 0
  m_CorrespondingSourceObject: {fileID: 0}
  m_PrefabInstance: {fileID: 0}
  m_PrefabAsset: {fileID: 0}
  m_GameObject: {fileID: 2076078675}
  m_Enabled: 1
  m_CastShadows: 1
  m_ReceiveShadows: 1
  m_DynamicOccludee: 1
  m_MotionVectors: 1
  m_LightProbeUsage: 1
  m_ReflectionProbeUsage: 1
  m_RenderingLayerMask: 1
  m_RendererPriority: 0
  m_Materials:
  - {fileID: 10303, guid: 0000000000000000f000000000000000, type: 0}
  m_StaticBatchInfo:
    firstSubMesh: 0
    subMeshCount: 0
  m_StaticBatchRoot: {fileID: 0}
  m_ProbeAnchor: {fileID: 0}
  m_LightProbeVolumeOverride: {fileID: 0}
  m_ScaleInLightmap: 1
  m_PreserveUVs: 0
  m_IgnoreNormalsForChartDetection: 0
  m_ImportantGI: 0
  m_StitchLightmapSeams: 0
  m_SelectedEditorRenderState: 3
  m_MinimumChartSize: 4
  m_AutoUVMaxDistance: 0.5
  m_AutoUVMaxAngle: 89
  m_LightmapParameters: {fileID: 0}
  m_SortingLayerID: 0
  m_SortingLayer: 0
  m_SortingOrder: 0
--- !u!33 &2076078679
MeshFilter:
  m_ObjectHideFlags: 0
  m_CorrespondingSourceObject: {fileID: 0}
  m_PrefabInstance: {fileID: 0}
  m_PrefabAsset: {fileID: 0}
  m_GameObject: {fileID: 2076078675}
  m_Mesh: {fileID: 10202, guid: 0000000000000000e000000000000000, type: 0}
--- !u!4 &2085982140 stripped
Transform:
  m_CorrespondingSourceObject: {fileID: 3576335614288922936, guid: 9457180d68ce1b14eb5a9951f25ae8cb,
    type: 3}
  m_PrefabInstance: {fileID: 1959968332}
  m_PrefabAsset: {fileID: 0}
--- !u!1001 &3576335613866085830
PrefabInstance:
  m_ObjectHideFlags: 0
  serializedVersion: 2
  m_Modification:
    m_TransformParent: {fileID: 988901801}
    m_Modifications:
    - target: {fileID: 3576335614288922943, guid: 9457180d68ce1b14eb5a9951f25ae8cb,
        type: 3}
      propertyPath: m_Name
      value: PickUp
      objectReference: {fileID: 0}
    - target: {fileID: 3576335614288922936, guid: 9457180d68ce1b14eb5a9951f25ae8cb,
        type: 3}
      propertyPath: m_LocalPosition.x
      value: -0.5
      objectReference: {fileID: 0}
    - target: {fileID: 3576335614288922936, guid: 9457180d68ce1b14eb5a9951f25ae8cb,
        type: 3}
      propertyPath: m_LocalPosition.y
      value: 0.5
      objectReference: {fileID: 0}
    - target: {fileID: 3576335614288922936, guid: 9457180d68ce1b14eb5a9951f25ae8cb,
        type: 3}
      propertyPath: m_LocalPosition.z
      value: -1.6
      objectReference: {fileID: 0}
    - target: {fileID: 3576335614288922936, guid: 9457180d68ce1b14eb5a9951f25ae8cb,
        type: 3}
      propertyPath: m_LocalRotation.x
      value: 0.5606031
      objectReference: {fileID: 0}
    - target: {fileID: 3576335614288922936, guid: 9457180d68ce1b14eb5a9951f25ae8cb,
        type: 3}
      propertyPath: m_LocalRotation.y
      value: 0.1713936
      objectReference: {fileID: 0}
    - target: {fileID: 3576335614288922936, guid: 9457180d68ce1b14eb5a9951f25ae8cb,
        type: 3}
      propertyPath: m_LocalRotation.z
      value: 0.17139359
      objectReference: {fileID: 0}
    - target: {fileID: 3576335614288922936, guid: 9457180d68ce1b14eb5a9951f25ae8cb,
        type: 3}
      propertyPath: m_LocalRotation.w
      value: 0.79181606
      objectReference: {fileID: 0}
    - target: {fileID: 3576335614288922936, guid: 9457180d68ce1b14eb5a9951f25ae8cb,
        type: 3}
      propertyPath: m_RootOrder
      value: 0
      objectReference: {fileID: 0}
    - target: {fileID: 3576335614288922936, guid: 9457180d68ce1b14eb5a9951f25ae8cb,
        type: 3}
      propertyPath: m_LocalEulerAnglesHint.x
      value: 56
      objectReference: {fileID: 0}
    - target: {fileID: 3576335614288922936, guid: 9457180d68ce1b14eb5a9951f25ae8cb,
        type: 3}
      propertyPath: m_LocalEulerAnglesHint.y
      value: 56
      objectReference: {fileID: 0}
    - target: {fileID: 3576335614288922936, guid: 9457180d68ce1b14eb5a9951f25ae8cb,
        type: 3}
      propertyPath: m_LocalEulerAnglesHint.z
      value: 56
      objectReference: {fileID: 0}
    - target: {fileID: 3576335614288922936, guid: 9457180d68ce1b14eb5a9951f25ae8cb,
        type: 3}
      propertyPath: m_LocalScale.y
      value: 0.5000001
      objectReference: {fileID: 0}
    - target: {fileID: 3576335614288922936, guid: 9457180d68ce1b14eb5a9951f25ae8cb,
        type: 3}
      propertyPath: m_LocalScale.z
      value: 0.5000001
      objectReference: {fileID: 0}
    - target: {fileID: 3576335614288922938, guid: 9457180d68ce1b14eb5a9951f25ae8cb,
        type: 3}
      propertyPath: m_Enabled
      value: 1
      objectReference: {fileID: 0}
    - target: {fileID: 3576335614288922941, guid: 9457180d68ce1b14eb5a9951f25ae8cb,
        type: 3}
      propertyPath: m_IsTrigger
      value: 1
      objectReference: {fileID: 0}
    m_RemovedComponents: []
  m_SourcePrefab: {fileID: 100100000, guid: 9457180d68ce1b14eb5a9951f25ae8cb, type: 3}
